Iter=      1 alpha=           0.01 lowLevelIter=         Direct relDifference=             70 relDifferenceCellwise=      0.0236484 elapsedTime=        3.98779 energy=        29248.2
Iter=      2 alpha=     0.00594604 lowLevelIter=         Direct relDifference=        9.67594 relDifferenceCellwise=     0.00571895 elapsedTime=         12.171 energy=        27055.3
Iter=      3 alpha=     0.00438691 lowLevelIter=         Direct relDifference=        7.98522 relDifferenceCellwise=     0.00490984 elapsedTime=        19.7021 energy=        25810.6
Iter=      4 alpha=     0.00353553 lowLevelIter=         Direct relDifference=        7.97496 relDifferenceCellwise=     0.00455778 elapsedTime=        27.8256 energy=        24934.3
Iter=      5 alpha=      0.0029907 lowLevelIter=         Direct relDifference=         7.9852 relDifferenceCellwise=     0.00434105 elapsedTime=        36.2501 energy=        24257.5
Iter=      6 alpha=     0.00260847 lowLevelIter=         Direct relDifference=        7.99772 relDifferenceCellwise=     0.00418743 elapsedTime=        44.8746 energy=        23706.1
Iter=      7 alpha=     0.00232368 lowLevelIter=         Direct relDifference=        8.00802 relDifferenceCellwise=     0.00406961 elapsedTime=        53.4208 energy=          23241
Iter=      8 alpha=     0.00210224 lowLevelIter=         Direct relDifference=        8.01509 relDifferenceCellwise=     0.00397457 elapsedTime=        62.3042 energy=        22838.9
Iter=      9 alpha=      0.0019245 lowLevelIter=         Direct relDifference=        8.01898 relDifferenceCellwise=     0.00389515 elapsedTime=          70.13 energy=          22485
Iter=     10 alpha=     0.00177828 lowLevelIter=         Direct relDifference=        8.01997 relDifferenceCellwise=     0.00382708 elapsedTime=         77.606 energy=        22168.9
Iter=     11 alpha=      0.0016556 lowLevelIter=         Direct relDifference=        8.01848 relDifferenceCellwise=     0.00376759 elapsedTime=        85.1586 energy=        21883.5
Iter=     12 alpha=     0.00155101 lowLevelIter=         Direct relDifference=        8.01488 relDifferenceCellwise=     0.00371478 elapsedTime=        93.3257 energy=        21623.4
Iter=     13 alpha=     0.00146064 lowLevelIter=         Direct relDifference=        8.00949 relDifferenceCellwise=     0.00366733 elapsedTime=        101.545 energy=        21384.6
Iter=     14 alpha=     0.00138167 lowLevelIter=         Direct relDifference=        8.00261 relDifferenceCellwise=     0.00362425 elapsedTime=        108.871 energy=        21163.8
Iter=     15 alpha=     0.00131199 lowLevelIter=         Direct relDifference=        7.99448 relDifferenceCellwise=     0.00358481 elapsedTime=        116.775 energy=        20958.7
Iter=     16 alpha=        0.00125 lowLevelIter=         Direct relDifference=        7.98528 relDifferenceCellwise=     0.00354845 elapsedTime=        124.805 energy=        20767.1
Iter=     17 alpha=     0.00119444 lowLevelIter=         Direct relDifference=        7.97519 relDifferenceCellwise=     0.00351472 elapsedTime=        132.319 energy=        20587.4
Iter=     18 alpha=     0.00114432 lowLevelIter=         Direct relDifference=        7.96434 relDifferenceCellwise=     0.00348327 elapsedTime=        139.691 energy=        20418.3
Iter=     19 alpha=     0.00109884 lowLevelIter=         Direct relDifference=        7.95288 relDifferenceCellwise=     0.00345381 elapsedTime=        146.982 energy=        20258.7
Iter=     20 alpha=     0.00105737 lowLevelIter=         Direct relDifference=         7.9409 relDifferenceCellwise=     0.00342608 elapsedTime=        154.148 energy=        20107.4
Iter=     21 alpha=     0.00101938 lowLevelIter=         Direct relDifference=        7.92847 relDifferenceCellwise=     0.00339991 elapsedTime=        161.451 energy=        19963.9
Iter=     22 alpha=    0.000984426 lowLevelIter=         Direct relDifference=        7.91569 relDifferenceCellwise=     0.00337513 elapsedTime=         168.73 energy=        19827.2
Iter=     23 alpha=    0.000952147 lowLevelIter=         Direct relDifference=        7.90259 relDifferenceCellwise=      0.0033516 elapsedTime=        176.192 energy=        19696.8
Iter=     24 alpha=    0.000922235 lowLevelIter=         Direct relDifference=        7.88925 relDifferenceCellwise=     0.00332919 elapsedTime=        184.147 energy=        19572.2
Iter=     25 alpha=    0.000894427 lowLevelIter=         Direct relDifference=         7.8757 relDifferenceCellwise=     0.00330781 elapsedTime=        191.888 energy=        19452.9
Iter=     26 alpha=      0.0008685 lowLevelIter=         Direct relDifference=          7.862 relDifferenceCellwise=     0.00328736 elapsedTime=         199.29 energy=        19338.4
Iter=     27 alpha=    0.000844262 lowLevelIter=         Direct relDifference=        7.84816 relDifferenceCellwise=     0.00326777 elapsedTime=        206.617 energy=        19228.5
Iter=     28 alpha=    0.000821545 lowLevelIter=         Direct relDifference=        7.83422 relDifferenceCellwise=     0.00324897 elapsedTime=        213.914 energy=        19122.7
Iter=     29 alpha=    0.000800205 lowLevelIter=         Direct relDifference=        7.82021 relDifferenceCellwise=     0.00323089 elapsedTime=        221.272 energy=        19020.8
Iter=     30 alpha=    0.000780116 lowLevelIter=         Direct relDifference=        7.80614 relDifferenceCellwise=     0.00321348 elapsedTime=        228.805 energy=        18922.5
Iter=     31 alpha=    0.000761165 lowLevelIter=         Direct relDifference=        7.79205 relDifferenceCellwise=      0.0031967 elapsedTime=        236.318 energy=        18827.7
Iter=     32 alpha=    0.000743254 lowLevelIter=         Direct relDifference=        7.77796 relDifferenceCellwise=     0.00318049 elapsedTime=        243.714 energy=        18735.9
Iter=     33 alpha=    0.000726297 lowLevelIter=         Direct relDifference=        7.76388 relDifferenceCellwise=     0.00316481 elapsedTime=        251.035 energy=        18647.2
Iter=     34 alpha=    0.000710217 lowLevelIter=         Direct relDifference=         7.7498 relDifferenceCellwise=     0.00314965 elapsedTime=        258.182 energy=        18561.2
Iter=     35 alpha=    0.000694943 lowLevelIter=         Direct relDifference=        7.73575 relDifferenceCellwise=     0.00313497 elapsedTime=        265.046 energy=        18477.8
Iter=     36 alpha=    0.000680414 lowLevelIter=         Direct relDifference=        7.72173 relDifferenceCellwise=     0.00312073 elapsedTime=        271.851 energy=          18397
Iter=     37 alpha=    0.000666575 lowLevelIter=         Direct relDifference=        7.70777 relDifferenceCellwise=      0.0031069 elapsedTime=        278.666 energy=        18318.5
Iter=     38 alpha=    0.000653375 lowLevelIter=         Direct relDifference=        7.69385 relDifferenceCellwise=     0.00309348 elapsedTime=        285.401 energy=        18242.1
Iter=     39 alpha=    0.000640769 lowLevelIter=         Direct relDifference=        7.67999 relDifferenceCellwise=     0.00308043 elapsedTime=        292.132 energy=        18167.9
Iter=     40 alpha=    0.000628717 lowLevelIter=         Direct relDifference=        7.66619 relDifferenceCellwise=     0.00306773 elapsedTime=        298.836 energy=        18095.7
Iter=     41 alpha=     0.00061718 lowLevelIter=         Direct relDifference=        7.65247 relDifferenceCellwise=     0.00305537 elapsedTime=        305.867 energy=        18025.4
Iter=     42 alpha=    0.000606126 lowLevelIter=         Direct relDifference=        7.63882 relDifferenceCellwise=     0.00304333 elapsedTime=        312.702 energy=        17956.9
Iter=     43 alpha=    0.000595523 lowLevelIter=         Direct relDifference=        7.62524 relDifferenceCellwise=     0.00303159 elapsedTime=        319.586 energy=          17890
Iter=     44 alpha=    0.000585343 lowLevelIter=         Direct relDifference=        7.61175 relDifferenceCellwise=     0.00302014 elapsedTime=        326.315 energy=        17824.9
Iter=     45 alpha=     0.00057556 lowLevelIter=         Direct relDifference=        7.59835 relDifferenceCellwise=     0.00300895 elapsedTime=        333.003 energy=        17761.2
Iter=     46 alpha=     0.00056615 lowLevelIter=         Direct relDifference=        7.58503 relDifferenceCellwise=     0.00299803 elapsedTime=        339.671 energy=        17699.1
Iter=     47 alpha=    0.000557092 lowLevelIter=         Direct relDifference=        7.57179 relDifferenceCellwise=     0.00298737 elapsedTime=        346.322 energy=        17638.4
Iter=     48 alpha=    0.000548364 lowLevelIter=         Direct relDifference=        7.55865 relDifferenceCellwise=     0.00297693 elapsedTime=        353.004 energy=        17579.1
Iter=     49 alpha=    0.000539949 lowLevelIter=         Direct relDifference=         7.5456 relDifferenceCellwise=     0.00296673 elapsedTime=        359.651 energy=        17521.1
Iter=     50 alpha=     0.00053183 lowLevelIter=         Direct relDifference=        7.53264 relDifferenceCellwise=     0.00295674 elapsedTime=        366.282 energy=        17464.3
Iter=     51 alpha=    0.000523989 lowLevelIter=         Direct relDifference=        7.51978 relDifferenceCellwise=     0.00294696 elapsedTime=        372.972 energy=        17408.7
Iter=     52 alpha=    0.000516413 lowLevelIter=         Direct relDifference=          7.507 relDifferenceCellwise=     0.00293739 elapsedTime=        379.772 energy=        17354.3
Iter=     53 alpha=    0.000509088 lowLevelIter=         Direct relDifference=        7.49431 relDifferenceCellwise=     0.00292801 elapsedTime=        386.455 energy=          17301
Iter=     54 alpha=    0.000502001 lowLevelIter=         Direct relDifference=        7.48172 relDifferenceCellwise=     0.00291881 elapsedTime=        393.302 energy=        17248.8
Iter=     55 alpha=     0.00049514 lowLevelIter=         Direct relDifference=        7.46923 relDifferenceCellwise=      0.0029098 elapsedTime=        401.317 energy=        17197.6
Iter=     56 alpha=    0.000488494 lowLevelIter=         Direct relDifference=        7.45682 relDifferenceCellwise=     0.00290095 elapsedTime=        408.593 energy=        17147.4
Iter=     57 alpha=    0.000482052 lowLevelIter=         Direct relDifference=        7.44452 relDifferenceCellwise=     0.00289226 elapsedTime=        415.756 energy=        17098.1
Iter=     58 alpha=    0.000475805 lowLevelIter=         Direct relDifference=        7.43231 relDifferenceCellwise=     0.00288374 elapsedTime=        422.823 energy=        17049.8
Iter=     59 alpha=    0.000469744 lowLevelIter=         Direct relDifference=        7.42019 relDifferenceCellwise=     0.00287537 elapsedTime=        429.865 energy=        17002.4
Iter=     60 alpha=     0.00046386 lowLevelIter=         Direct relDifference=        7.40815 relDifferenceCellwise=     0.00286715 elapsedTime=        436.922 energy=        16955.8
Iter=     61 alpha=    0.000458145 lowLevelIter=         Direct relDifference=        7.39621 relDifferenceCellwise=     0.00285908 elapsedTime=        443.958 energy=        16910.1
Iter=     62 alpha=    0.000452591 lowLevelIter=         Direct relDifference=        7.38437 relDifferenceCellwise=     0.00285115 elapsedTime=         451.03 energy=        16865.1
Iter=     63 alpha=    0.000447193 lowLevelIter=         Direct relDifference=        7.37261 relDifferenceCellwise=     0.00284334 elapsedTime=        458.193 energy=          16821
Iter=     64 alpha=    0.000441942 lowLevelIter=         Direct relDifference=        7.36094 relDifferenceCellwise=     0.00283567 elapsedTime=        465.221 energy=        16777.6
Iter=     65 alpha=    0.000436833 lowLevelIter=         Direct relDifference=        7.34937 relDifferenceCellwise=     0.00282813 elapsedTime=        472.249 energy=        16734.9
Iter=     66 alpha=    0.000431859 lowLevelIter=         Direct relDifference=        7.33788 relDifferenceCellwise=     0.00282071 elapsedTime=        479.316 energy=        16692.9
Iter=     67 alpha=    0.000427016 lowLevelIter=         Direct relDifference=        7.32648 relDifferenceCellwise=      0.0028134 elapsedTime=        486.484 energy=        16651.6
Iter=     68 alpha=    0.000422297 lowLevelIter=         Direct relDifference=        7.31517 relDifferenceCellwise=     0.00280621 elapsedTime=        493.538 energy=          16611
Iter=     69 alpha=    0.000417699 lowLevelIter=         Direct relDifference=        7.30394 relDifferenceCellwise=     0.00279913 elapsedTime=        500.535 energy=          16571
Iter=     70 alpha=    0.000413215 lowLevelIter=         Direct relDifference=         7.2928 relDifferenceCellwise=     0.00279216 elapsedTime=        507.572 energy=        16531.7
Iter=     71 alpha=    0.000408843 lowLevelIter=         Direct relDifference=        7.28175 relDifferenceCellwise=     0.00278529 elapsedTime=        515.008 energy=        16492.9
Iter=     72 alpha=    0.000404576 lowLevelIter=         Direct relDifference=        7.27079 relDifferenceCellwise=     0.00277851 elapsedTime=        522.593 energy=        16454.8
Iter=     73 alpha=    0.000400413 lowLevelIter=         Direct relDifference=        7.25991 relDifferenceCellwise=     0.00277184 elapsedTime=        530.071 energy=        16417.2
Iter=     74 alpha=    0.000396348 lowLevelIter=         Direct relDifference=        7.24911 relDifferenceCellwise=     0.00276527 elapsedTime=        537.386 energy=        16380.2
Iter=     75 alpha=    0.000392377 lowLevelIter=         Direct relDifference=        7.23838 relDifferenceCellwise=     0.00275879 elapsedTime=        544.885 energy=        16343.7
Iter=     76 alpha=    0.000388499 lowLevelIter=         Direct relDifference=        7.22774 relDifferenceCellwise=      0.0027524 elapsedTime=        551.952 energy=        16307.7
Iter=     77 alpha=    0.000384709 lowLevelIter=         Direct relDifference=        7.21718 relDifferenceCellwise=      0.0027461 elapsedTime=        559.049 energy=        16272.3
Iter=     78 alpha=    0.000381004 lowLevelIter=         Direct relDifference=         7.2067 relDifferenceCellwise=     0.00273989 elapsedTime=        566.084 energy=        16237.4
Iter=     79 alpha=    0.000377381 lowLevelIter=         Direct relDifference=         7.1963 relDifferenceCellwise=     0.00273376 elapsedTime=        573.217 energy=        16202.9
Iter=     80 alpha=    0.000373837 lowLevelIter=         Direct relDifference=        7.18597 relDifferenceCellwise=     0.00272771 elapsedTime=        580.281 energy=        16168.9
Iter=     81 alpha=     0.00037037 lowLevelIter=         Direct relDifference=        7.17572 relDifferenceCellwise=     0.00272174 elapsedTime=        587.353 energy=        16135.4
Iter=     82 alpha=    0.000366978 lowLevelIter=         Direct relDifference=        7.16556 relDifferenceCellwise=     0.00271583 elapsedTime=        594.397 energy=        16102.3
Iter=     83 alpha=    0.000363657 lowLevelIter=         Direct relDifference=        7.15547 relDifferenceCellwise=     0.00271001 elapsedTime=        601.645 energy=        16069.7
Iter=     84 alpha=    0.000360405 lowLevelIter=         Direct relDifference=        7.13683 relDifferenceCellwise=     0.00270277 elapsedTime=        608.657 energy=        16037.5
Iter=     85 alpha=     0.00035722 lowLevelIter=         Direct relDifference=        7.11504 relDifferenceCellwise=     0.00269568 elapsedTime=        615.797 energy=        16005.8
Iter=     86 alpha=      0.0003541 lowLevelIter=         Direct relDifference=        7.11154 relDifferenceCellwise=     0.00268991 elapsedTime=        622.981 energy=        15974.5
Iter=     87 alpha=    0.000351043 lowLevelIter=         Direct relDifference=        7.07524 relDifferenceCellwise=     0.00268316 elapsedTime=        630.337 energy=        15943.6
Iter=     88 alpha=    0.000348047 lowLevelIter=         Direct relDifference=        7.06834 relDifferenceCellwise=     0.00267735 elapsedTime=         637.78 energy=        15913.1
Iter=     89 alpha=     0.00034511 lowLevelIter=         Direct relDifference=        7.06393 relDifferenceCellwise=     0.00267194 elapsedTime=        644.968 energy=          15883
Iter=     90 alpha=     0.00034223 lowLevelIter=         Direct relDifference=        7.01234 relDifferenceCellwise=     0.00266527 elapsedTime=         652.55 energy=        15853.3
Iter=     91 alpha=    0.000339406 lowLevelIter=         Direct relDifference=        7.00426 relDifferenceCellwise=     0.00265978 elapsedTime=        659.654 energy=          15824
Iter=     92 alpha=    0.000336635 lowLevelIter=         Direct relDifference=        6.99818 relDifferenceCellwise=     0.00265455 elapsedTime=        667.086 energy=          15795
Iter=     93 alpha=    0.000333916 lowLevelIter=         Direct relDifference=        6.99225 relDifferenceCellwise=     0.00264688 elapsedTime=        674.719 energy=        15766.4
Iter=     94 alpha=    0.000331249 lowLevelIter=         Direct relDifference=        6.92769 relDifferenceCellwise=     0.00263808 elapsedTime=         682.04 energy=        15738.2
Iter=     95 alpha=     0.00032863 lowLevelIter=         Direct relDifference=        6.91913 relDifferenceCellwise=     0.00263218 elapsedTime=        689.752 energy=        15710.4
Iter=     96 alpha=    0.000326059 lowLevelIter=         Direct relDifference=        6.91005 relDifferenceCellwise=     0.00262643 elapsedTime=        697.448 energy=        15682.9
Iter=     97 alpha=    0.000323535 lowLevelIter=         Direct relDifference=        6.90101 relDifferenceCellwise=     0.00261949 elapsedTime=        704.906 energy=        15655.8
Iter=     98 alpha=    0.000321056 lowLevelIter=         Direct relDifference=        6.83224 relDifferenceCellwise=     0.00261317 elapsedTime=        712.353 energy=          15629
Iter=     99 alpha=     0.00031862 lowLevelIter=         Direct relDifference=        6.82055 relDifferenceCellwise=     0.00260747 elapsedTime=        720.541 energy=        15602.5
Iter=    100 alpha=    0.000316228 lowLevelIter=         Direct relDifference=        6.80958 relDifferenceCellwise=     0.00260154 elapsedTime=        728.838 energy=        15576.3
Iter=    101 alpha=    0.000313877 lowLevelIter=         Direct relDifference=        6.79808 relDifferenceCellwise=     0.00259609 elapsedTime=        736.736 energy=        15550.5
Iter=    102 alpha=    0.000311566 lowLevelIter=         Direct relDifference=        6.73277 relDifferenceCellwise=     0.00258985 elapsedTime=         744.24 energy=          15525
Iter=    103 alpha=    0.000309294 lowLevelIter=         Direct relDifference=        6.71871 relDifferenceCellwise=     0.00258396 elapsedTime=        752.001 energy=        15499.7
Iter=    104 alpha=    0.000307061 lowLevelIter=         Direct relDifference=        6.70533 relDifferenceCellwise=     0.00257939 elapsedTime=        760.031 energy=        15474.8
Iter=    105 alpha=    0.000304865 lowLevelIter=         Direct relDifference=        6.69211 relDifferenceCellwise=     0.00257425 elapsedTime=        767.821 energy=        15450.1
Iter=    106 alpha=    0.000302706 lowLevelIter=         Direct relDifference=        6.62893 relDifferenceCellwise=     0.00256639 elapsedTime=        777.375 energy=        15425.7
Iter=    107 alpha=    0.000300581 lowLevelIter=         Direct relDifference=         6.6127 relDifferenceCellwise=     0.00256192 elapsedTime=        784.359 energy=        15401.6
Iter=    108 alpha=    0.000298492 lowLevelIter=         Direct relDifference=        6.59752 relDifferenceCellwise=     0.00255715 elapsedTime=        791.356 energy=        15377.7
Iter=    109 alpha=    0.000296435 lowLevelIter=         Direct relDifference=         6.5427 relDifferenceCellwise=     0.00255096 elapsedTime=        798.353 energy=        15354.1
Iter=    110 alpha=    0.000294412 lowLevelIter=         Direct relDifference=        6.52696 relDifferenceCellwise=     0.00254611 elapsedTime=        805.292 energy=        15330.8
Iter=    111 alpha=     0.00029242 lowLevelIter=         Direct relDifference=          6.101 relDifferenceCellwise=     0.00253931 elapsedTime=        812.297 energy=        15307.8
Iter=    112 alpha=     0.00029046 lowLevelIter=         Direct relDifference=        6.08606 relDifferenceCellwise=     0.00253391 elapsedTime=        819.366 energy=          15285
Iter=    113 alpha=     0.00028853 lowLevelIter=         Direct relDifference=        6.07469 relDifferenceCellwise=     0.00252979 elapsedTime=        826.378 energy=        15262.4
Iter=    114 alpha=     0.00028663 lowLevelIter=         Direct relDifference=        6.06341 relDifferenceCellwise=     0.00252572 elapsedTime=        833.436 energy=        15240.1
Iter=    115 alpha=    0.000284758 lowLevelIter=         Direct relDifference=        6.05223 relDifferenceCellwise=     0.00252169 elapsedTime=        840.625 energy=        15217.9
Iter=    116 alpha=    0.000282915 lowLevelIter=         Direct relDifference=        6.04113 relDifferenceCellwise=     0.00251769 elapsedTime=        847.602 energy=          15196
Iter=    117 alpha=      0.0002811 lowLevelIter=         Direct relDifference=        6.03013 relDifferenceCellwise=     0.00251374 elapsedTime=        854.557 energy=        15174.3
Iter=    118 alpha=    0.000279311 lowLevelIter=         Direct relDifference=        6.01317 relDifferenceCellwise=     0.00250981 elapsedTime=        861.475 energy=        15152.8
Iter=    119 alpha=    0.000277549 lowLevelIter=         Direct relDifference=        5.91629 relDifferenceCellwise=     0.00250476 elapsedTime=        868.487 energy=        15131.5
Iter=    120 alpha=    0.000275813 lowLevelIter=         Direct relDifference=        5.90566 relDifferenceCellwise=     0.00250091 elapsedTime=        875.675 energy=        15110.5
Iter=    121 alpha=    0.000274101 lowLevelIter=         Direct relDifference=        5.89511 relDifferenceCellwise=     0.00249711 elapsedTime=        882.611 energy=        15089.6
Iter=    122 alpha=    0.000272414 lowLevelIter=         Direct relDifference=        5.88465 relDifferenceCellwise=     0.00249333 elapsedTime=        889.775 energy=        15068.9
Iter=    123 alpha=    0.000270752 lowLevelIter=         Direct relDifference=        5.87429 relDifferenceCellwise=     0.00248958 elapsedTime=        896.809 energy=        15048.4
Iter=    124 alpha=    0.000269112 lowLevelIter=         Direct relDifference=          5.864 relDifferenceCellwise=     0.00248587 elapsedTime=        904.074 energy=          15028
Iter=    125 alpha=    0.000267496 lowLevelIter=         Direct relDifference=        5.85379 relDifferenceCellwise=      0.0024822 elapsedTime=        911.338 energy=        15007.9
Iter=    126 alpha=    0.000265902 lowLevelIter=         Direct relDifference=        5.76179 relDifferenceCellwise=      0.0024776 elapsedTime=        918.554 energy=        14987.9
Iter=    127 alpha=     0.00026433 lowLevelIter=         Direct relDifference=        5.75058 relDifferenceCellwise=     0.00247383 elapsedTime=        925.734 energy=        14968.2
Iter=    128 alpha=     0.00026278 lowLevelIter=         Direct relDifference=        5.74068 relDifferenceCellwise=     0.00247025 elapsedTime=        932.927 energy=        14948.6
Iter=    129 alpha=    0.000261251 lowLevelIter=         Direct relDifference=        5.73086 relDifferenceCellwise=     0.00246671 elapsedTime=        939.963 energy=        14929.1
Iter=    130 alpha=    0.000259742 lowLevelIter=         Direct relDifference=        5.72112 relDifferenceCellwise=      0.0024632 elapsedTime=        947.305 energy=        14909.9
Iter=    131 alpha=    0.000258254 lowLevelIter=         Direct relDifference=        5.71145 relDifferenceCellwise=     0.00245963 elapsedTime=        954.336 energy=        14890.8
Iter=    132 alpha=    0.000256785 lowLevelIter=         Direct relDifference=          5.702 relDifferenceCellwise=     0.00245444 elapsedTime=        961.579 energy=        14871.9
Iter=    133 alpha=    0.000255336 lowLevelIter=         Direct relDifference=        5.62008 relDifferenceCellwise=     0.00244952 elapsedTime=        968.961 energy=        14853.1
Iter=    134 alpha=    0.000253905 lowLevelIter=         Direct relDifference=        5.60806 relDifferenceCellwise=     0.00244458 elapsedTime=        976.349 energy=        14834.6
Iter=    135 alpha=    0.000252493 lowLevelIter=         Direct relDifference=        5.59744 relDifferenceCellwise=     0.00244121 elapsedTime=        983.381 energy=        14816.2
Iter=    136 alpha=    0.000251099 lowLevelIter=         Direct relDifference=        5.58693 relDifferenceCellwise=     0.00243732 elapsedTime=        990.675 energy=          14798
Iter=    137 alpha=    0.000249724 lowLevelIter=         Direct relDifference=        5.57641 relDifferenceCellwise=     0.00243302 elapsedTime=        997.766 energy=        14779.9
Iter=    138 alpha=    0.000248365 lowLevelIter=         Direct relDifference=        5.56551 relDifferenceCellwise=     0.00242944 elapsedTime=        1004.87 energy=          14762
Iter=    139 alpha=    0.000247024 lowLevelIter=         Direct relDifference=        5.55453 relDifferenceCellwise=     0.00242617 elapsedTime=        1011.81 energy=        14744.2
Iter=    140 alpha=    0.000245699 lowLevelIter=         Direct relDifference=        5.47928 relDifferenceCellwise=     0.00242124 elapsedTime=        1019.03 energy=        14726.6
Iter=    141 alpha=    0.000244391 lowLevelIter=         Direct relDifference=        5.46628 relDifferenceCellwise=     0.00241778 elapsedTime=        1026.68 energy=        14709.1
Iter=    142 alpha=    0.000243099 lowLevelIter=         Direct relDifference=        5.45474 relDifferenceCellwise=     0.00241463 elapsedTime=         1033.8 energy=        14691.8
Iter=    143 alpha=    0.000241823 lowLevelIter=         Direct relDifference=         5.4434 relDifferenceCellwise=     0.00241054 elapsedTime=        1040.85 energy=        14674.6
Iter=    144 alpha=    0.000240563 lowLevelIter=         Direct relDifference=        5.43202 relDifferenceCellwise=     0.00240673 elapsedTime=        1047.68 energy=        14657.6
Iter=    145 alpha=    0.000239317 lowLevelIter=         Direct relDifference=         5.3725 relDifferenceCellwise=     0.00240186 elapsedTime=        1055.03 energy=        14640.7
Iter=    146 alpha=    0.000238087 lowLevelIter=         Direct relDifference=        4.96592 relDifferenceCellwise=     0.00239801 elapsedTime=        1063.07 energy=          14624
Iter=    147 alpha=    0.000236871 lowLevelIter=         Direct relDifference=        4.96285 relDifferenceCellwise=     0.00239449 elapsedTime=        1070.84 energy=        14607.4
Iter=    148 alpha=     0.00023567 lowLevelIter=         Direct relDifference=        4.95966 relDifferenceCellwise=     0.00239151 elapsedTime=        1078.78 energy=        14590.9
Iter=    149 alpha=    0.000234482 lowLevelIter=         Direct relDifference=        4.95647 relDifferenceCellwise=     0.00238854 elapsedTime=        1086.49 energy=        14574.6
Iter=    150 alpha=    0.000233309 lowLevelIter=         Direct relDifference=        4.95328 relDifferenceCellwise=      0.0023856 elapsedTime=        1094.13 energy=        14558.3
Iter=    151 alpha=    0.000232149 lowLevelIter=         Direct relDifference=        4.95009 relDifferenceCellwise=     0.00238268 elapsedTime=        1102.19 energy=        14542.2
Iter=    152 alpha=    0.000231003 lowLevelIter=         Direct relDifference=         4.9469 relDifferenceCellwise=     0.00237978 elapsedTime=        1110.38 energy=        14526.2
Iter=    153 alpha=     0.00022987 lowLevelIter=         Direct relDifference=        4.94372 relDifferenceCellwise=      0.0023769 elapsedTime=         1118.1 energy=        14510.4
Iter=    154 alpha=    0.000228749 lowLevelIter=         Direct relDifference=        4.94062 relDifferenceCellwise=     0.00237324 elapsedTime=        1125.19 energy=        14494.6
Iter=    155 alpha=    0.000227641 lowLevelIter=         Direct relDifference=        4.93741 relDifferenceCellwise=      0.0023704 elapsedTime=        1132.36 energy=          14479
Iter=    156 alpha=    0.000226546 lowLevelIter=         Direct relDifference=         4.9342 relDifferenceCellwise=     0.00236759 elapsedTime=        1139.93 energy=        14463.4
Iter=    157 alpha=    0.000225463 lowLevelIter=         Direct relDifference=        4.93099 relDifferenceCellwise=      0.0023648 elapsedTime=        1146.96 energy=          14448
Iter=    158 alpha=    0.000224392 lowLevelIter=         Direct relDifference=        4.92778 relDifferenceCellwise=     0.00236202 elapsedTime=        1153.76 energy=        14432.7
Iter=    159 alpha=    0.000223333 lowLevelIter=         Direct relDifference=        4.92458 relDifferenceCellwise=     0.00235927 elapsedTime=        1160.49 energy=        14417.5
