Iter=    100 alpha=     0.00158114 beta=              1 lowLevelErr=          1.952 relDifference=        466.069 relDifferenceCellwise=      0.0142233 elapsedTime=        1.42926
Iter=    200 alpha=    0.000940151 beta=              1 lowLevelErr=        1.83021 relDifference=        738.224 relDifferenceCellwise=      0.0225288 elapsedTime=        2.73961
Iter=    300 alpha=    0.000693632 beta=              1 lowLevelErr=        3.66961 relDifference=        1597.88 relDifferenceCellwise=      0.0487633 elapsedTime=        4.10029
Iter=    400 alpha=    0.000559017 beta=              1 lowLevelErr=         2.0774 relDifference=        985.959 relDifferenceCellwise=      0.0300891 elapsedTime=        5.41478
Iter=    500 alpha=    0.000472871 beta=              1 lowLevelErr=        1.01363 relDifference=        560.726 relDifferenceCellwise=       0.017112 elapsedTime=        6.72832
Iter=    600 alpha=    0.000412436 beta=              1 lowLevelErr=       0.808028 relDifference=        449.647 relDifferenceCellwise=      0.0137221 elapsedTime=         8.0789
Iter=    700 alpha=    0.000367406 beta=              1 lowLevelErr=       0.814919 relDifference=        370.633 relDifferenceCellwise=      0.0113108 elapsedTime=        9.41869
Iter=    800 alpha=    0.000332393 beta=              1 lowLevelErr=       0.735535 relDifference=        382.868 relDifferenceCellwise=      0.0116842 elapsedTime=        10.7405
Iter=    900 alpha=     0.00030429 beta=              1 lowLevelErr=       0.708355 relDifference=        469.853 relDifferenceCellwise=      0.0143388 elapsedTime=        12.0889
Iter=   1000 alpha=    0.000281171 beta=              1 lowLevelErr=       0.746466 relDifference=        564.636 relDifferenceCellwise=      0.0172313 elapsedTime=        13.4427
Iter=   1100 alpha=    0.000261773 beta=              1 lowLevelErr=       0.730268 relDifference=        562.022 relDifferenceCellwise=      0.0171515 elapsedTime=        14.7923
Iter=   1200 alpha=    0.000245236 beta=              1 lowLevelErr=       0.641913 relDifference=        482.984 relDifferenceCellwise=      0.0147395 elapsedTime=        16.1252
Iter=   1300 alpha=    0.000230947 beta=              1 lowLevelErr=       0.437425 relDifference=        351.782 relDifferenceCellwise=      0.0107355 elapsedTime=        17.4827
Iter=   1400 alpha=    0.000218461 beta=              1 lowLevelErr=       0.351439 relDifference=         357.46 relDifferenceCellwise=      0.0109088 elapsedTime=        18.8674
Iter=   1500 alpha=    0.000207444 beta=              1 lowLevelErr=       0.344127 relDifference=         372.67 relDifferenceCellwise=       0.011373 elapsedTime=        20.2022
Iter=   1600 alpha=    0.000197642 beta=              1 lowLevelErr=       0.365936 relDifference=        393.551 relDifferenceCellwise=      0.0120102 elapsedTime=         21.525
Iter=   1700 alpha=    0.000188857 beta=              1 lowLevelErr=       0.385912 relDifference=        391.448 relDifferenceCellwise=       0.011946 elapsedTime=        22.9682
Iter=   1800 alpha=    0.000180932 beta=              1 lowLevelErr=       0.384473 relDifference=        360.038 relDifferenceCellwise=      0.0109875 elapsedTime=        24.2931
Iter=   1900 alpha=    0.000173742 beta=              1 lowLevelErr=       0.372451 relDifference=        381.293 relDifferenceCellwise=      0.0116361 elapsedTime=        25.6644
Iter=   2000 alpha=    0.000167185 beta=              1 lowLevelErr=       0.351439 relDifference=        328.967 relDifferenceCellwise=      0.0100393 elapsedTime=        26.9909
Iter=   2100 alpha=    0.000161178 beta=              1 lowLevelErr=       0.358999 relDifference=        301.812 relDifferenceCellwise=     0.00921057 elapsedTime=        28.3198
Iter=   2200 alpha=    0.000155651 beta=              1 lowLevelErr=       0.354925 relDifference=        262.293 relDifferenceCellwise=     0.00800455 elapsedTime=        29.6521
Iter=   2300 alpha=    0.000150548 beta=              1 lowLevelErr=       0.336145 relDifference=        216.782 relDifferenceCellwise=     0.00661565 elapsedTime=        31.0319
Iter=   2400 alpha=    0.000145818 beta=              1 lowLevelErr=       0.310627 relDifference=         188.63 relDifferenceCellwise=     0.00575653 elapsedTime=        32.3747
Iter=   2500 alpha=    0.000141421 beta=              1 lowLevelErr=       0.284021 relDifference=        172.705 relDifferenceCellwise=     0.00527053 elapsedTime=        33.7126
Iter=   2600 alpha=    0.000137322 beta=              1 lowLevelErr=       0.259592 relDifference=        168.315 relDifferenceCellwise=     0.00513657 elapsedTime=        35.0856
Iter=   2700 alpha=     0.00013349 beta=              1 lowLevelErr=       0.239398 relDifference=        168.742 relDifferenceCellwise=     0.00514961 elapsedTime=        36.5632
Iter=   2800 alpha=    0.000129898 beta=              1 lowLevelErr=       0.223383 relDifference=        166.769 relDifferenceCellwise=     0.00508939 elapsedTime=        38.0434
Iter=   2900 alpha=    0.000126524 beta=              1 lowLevelErr=       0.209583 relDifference=        163.327 relDifferenceCellwise=     0.00498433 elapsedTime=        39.5445
Iter=   3000 alpha=    0.000123347 beta=              1 lowLevelErr=       0.197271 relDifference=        159.893 relDifferenceCellwise=     0.00487955 elapsedTime=        41.0095
Iter=   3100 alpha=    0.000120351 beta=              1 lowLevelErr=       0.186485 relDifference=        154.708 relDifferenceCellwise=     0.00472131 elapsedTime=        42.4614
Iter=   3200 alpha=    0.000117519 beta=              1 lowLevelErr=       0.176649 relDifference=        148.385 relDifferenceCellwise=     0.00452834 elapsedTime=        43.8578
Iter=   3300 alpha=    0.000114838 beta=              1 lowLevelErr=       0.167219 relDifference=        139.295 relDifferenceCellwise=     0.00425093 elapsedTime=        45.2638
Iter=   3400 alpha=    0.000112295 beta=              1 lowLevelErr=       0.157964 relDifference=        131.209 relDifferenceCellwise=      0.0040042 elapsedTime=         46.666
Iter=   3500 alpha=     0.00010988 beta=              1 lowLevelErr=       0.149088 relDifference=        121.317 relDifferenceCellwise=     0.00370229 elapsedTime=        48.0715
Iter=   3600 alpha=    0.000107583 beta=              1 lowLevelErr=        0.14095 relDifference=        117.765 relDifferenceCellwise=     0.00359391 elapsedTime=        49.4606
Iter=   3700 alpha=    0.000105395 beta=              1 lowLevelErr=       0.134005 relDifference=        118.826 relDifferenceCellwise=     0.00362627 elapsedTime=        50.8573
Iter=   3800 alpha=    0.000103308 beta=              1 lowLevelErr=       0.128246 relDifference=        122.652 relDifferenceCellwise=     0.00374305 elapsedTime=        52.2681
Iter=   3900 alpha=    0.000101314 beta=              1 lowLevelErr=       0.123584 relDifference=         128.54 relDifferenceCellwise=     0.00392273 elapsedTime=        53.6707
Iter=   4000 alpha=    9.94088e-05 beta=              1 lowLevelErr=       0.120039 relDifference=        136.321 relDifferenceCellwise=     0.00416019 elapsedTime=        55.0873
Iter=   4100 alpha=    9.75848e-05 beta=              1 lowLevelErr=       0.117724 relDifference=        144.256 relDifferenceCellwise=     0.00440234 elapsedTime=         56.497
Iter=   4200 alpha=     9.5837e-05 beta=              1 lowLevelErr=       0.116225 relDifference=        150.658 relDifferenceCellwise=     0.00459773 elapsedTime=        57.9134
Iter=   4300 alpha=    9.41605e-05 beta=              1 lowLevelErr=       0.114959 relDifference=        156.755 relDifferenceCellwise=     0.00478377 elapsedTime=        59.3951
Iter=   4400 alpha=    9.25509e-05 beta=              1 lowLevelErr=       0.113911 relDifference=        164.457 relDifferenceCellwise=     0.00501884 elapsedTime=        60.8366
Iter=   4500 alpha=     9.1004e-05 beta=              1 lowLevelErr=       0.113681 relDifference=         176.65 relDifferenceCellwise=     0.00539094 elapsedTime=        62.2845
Iter=   4600 alpha=    8.95162e-05 beta=              1 lowLevelErr=       0.115967 relDifference=        196.874 relDifferenceCellwise=      0.0060081 elapsedTime=        63.7504
Iter=   4700 alpha=    8.80839e-05 beta=              1 lowLevelErr=       0.123361 relDifference=         222.18 relDifferenceCellwise=     0.00678039 elapsedTime=        65.2002
Iter=   4800 alpha=     8.6704e-05 beta=              1 lowLevelErr=       0.134803 relDifference=        239.818 relDifferenceCellwise=     0.00731866 elapsedTime=        66.6527
Iter=   4900 alpha=    8.53735e-05 beta=              1 lowLevelErr=        0.14421 relDifference=         233.87 relDifferenceCellwise=     0.00713713 elapsedTime=        68.1566
Iter=   5000 alpha=    8.40896e-05 beta=              1 lowLevelErr=       0.147777 relDifference=        210.351 relDifferenceCellwise=     0.00641941 elapsedTime=        69.6527
Iter=   5100 alpha=      8.285e-05 beta=              1 lowLevelErr=       0.147358 relDifference=        188.113 relDifferenceCellwise=     0.00574075 elapsedTime=        71.1002
Iter=   5200 alpha=    8.16521e-05 beta=              1 lowLevelErr=       0.145542 relDifference=        168.462 relDifferenceCellwise=     0.00514104 elapsedTime=        72.5523
Iter=   5300 alpha=    8.04939e-05 beta=              1 lowLevelErr=        0.14311 relDifference=        150.856 relDifferenceCellwise=     0.00460376 elapsedTime=        74.0079
Iter=   5400 alpha=    7.93733e-05 beta=              1 lowLevelErr=       0.140352 relDifference=        135.341 relDifferenceCellwise=     0.00413028 elapsedTime=        75.4633
Iter=   5500 alpha=    7.82885e-05 beta=              1 lowLevelErr=        0.13737 relDifference=        122.459 relDifferenceCellwise=     0.00373714 elapsedTime=        76.9247
Iter=   5600 alpha=    7.72376e-05 beta=              1 lowLevelErr=       0.134315 relDifference=         112.01 relDifferenceCellwise=     0.00341829 elapsedTime=        78.3821
Iter=   5700 alpha=    7.62191e-05 beta=              1 lowLevelErr=       0.131187 relDifference=        102.397 relDifferenceCellwise=      0.0031249 elapsedTime=        79.8313
Iter=   5800 alpha=    7.52314e-05 beta=              1 lowLevelErr=       0.128023 relDifference=        94.1474 relDifferenceCellwise=     0.00287315 elapsedTime=        81.2793
Iter=   5900 alpha=     7.4273e-05 beta=              1 lowLevelErr=       0.124881 relDifference=        86.6506 relDifferenceCellwise=     0.00264437 elapsedTime=         82.727
Iter=   6000 alpha=    7.33426e-05 beta=              1 lowLevelErr=       0.121722 relDifference=        79.9623 relDifferenceCellwise=     0.00244025 elapsedTime=         84.174
Iter=   6100 alpha=     7.2439e-05 beta=              1 lowLevelErr=       0.118574 relDifference=        74.2274 relDifferenceCellwise=     0.00226524 elapsedTime=        85.6404
Iter=   6200 alpha=     7.1561e-05 beta=              1 lowLevelErr=       0.115459 relDifference=        69.4675 relDifferenceCellwise=     0.00211998 elapsedTime=        87.0894
Iter=   6300 alpha=    7.07074e-05 beta=              1 lowLevelErr=       0.112392 relDifference=        65.4188 relDifferenceCellwise=     0.00199642 elapsedTime=        88.5406
Iter=   6400 alpha=    6.98771e-05 beta=              1 lowLevelErr=       0.109353 relDifference=        61.3371 relDifferenceCellwise=     0.00187186 elapsedTime=        90.0582
Iter=   6500 alpha=    6.90693e-05 beta=              1 lowLevelErr=       0.106362 relDifference=        58.0326 relDifferenceCellwise=     0.00177101 elapsedTime=        91.5683
Iter=   6600 alpha=    6.82829e-05 beta=              1 lowLevelErr=       0.103432 relDifference=        55.1971 relDifferenceCellwise=     0.00168448 elapsedTime=        93.1012
Iter=   6700 alpha=    6.75171e-05 beta=              1 lowLevelErr=       0.100571 relDifference=        52.7973 relDifferenceCellwise=     0.00161124 elapsedTime=        94.5877
Iter=   6800 alpha=    6.67711e-05 beta=              1 lowLevelErr=      0.0977905 relDifference=        50.9702 relDifferenceCellwise=     0.00155549 elapsedTime=        96.0715
Iter=   6900 alpha=     6.6044e-05 beta=              1 lowLevelErr=      0.0950936 relDifference=        49.4779 relDifferenceCellwise=     0.00150995 elapsedTime=        97.5554
Iter=   7000 alpha=    6.53351e-05 beta=              1 lowLevelErr=      0.0924819 relDifference=        47.9203 relDifferenceCellwise=     0.00146241 elapsedTime=        99.0962
Iter=   7100 alpha=    6.46437e-05 beta=              1 lowLevelErr=      0.0899566 relDifference=        46.6984 relDifferenceCellwise=     0.00142512 elapsedTime=        100.651
Iter=   7200 alpha=    6.39692e-05 beta=              1 lowLevelErr=      0.0875165 relDifference=        45.8593 relDifferenceCellwise=     0.00139952 elapsedTime=         102.14
Iter=   7300 alpha=    6.33108e-05 beta=              1 lowLevelErr=      0.0851603 relDifference=        45.1547 relDifferenceCellwise=     0.00137801 elapsedTime=        103.603
Iter=   7400 alpha=    6.26681e-05 beta=              1 lowLevelErr=      0.0828831 relDifference=        44.5004 relDifferenceCellwise=     0.00135805 elapsedTime=        105.052
Iter=   7500 alpha=    6.20403e-05 beta=              1 lowLevelErr=      0.0806854 relDifference=        44.1472 relDifferenceCellwise=     0.00134727 elapsedTime=        106.509
Iter=   7600 alpha=    6.14271e-05 beta=              1 lowLevelErr=       0.078561 relDifference=        43.9083 relDifferenceCellwise=     0.00133997 elapsedTime=        107.977
Iter=   7700 alpha=    6.08278e-05 beta=              1 lowLevelErr=      0.0765157 relDifference=        43.8661 relDifferenceCellwise=     0.00133869 elapsedTime=        109.425
Iter=   7800 alpha=     6.0242e-05 beta=              1 lowLevelErr=      0.0745445 relDifference=         43.827 relDifferenceCellwise=     0.00133749 elapsedTime=        110.877
Iter=   7900 alpha=    5.96691e-05 beta=              1 lowLevelErr=      0.0726479 relDifference=        43.8718 relDifferenceCellwise=     0.00133886 elapsedTime=        112.332
Iter=   8000 alpha=    5.91089e-05 beta=              1 lowLevelErr=      0.0708244 relDifference=        43.9716 relDifferenceCellwise=     0.00134191 elapsedTime=        113.782
Iter=   8100 alpha=    5.85607e-05 beta=              1 lowLevelErr=      0.0690749 relDifference=        44.2257 relDifferenceCellwise=     0.00134966 elapsedTime=        115.253
Iter=   8200 alpha=    5.80243e-05 beta=              1 lowLevelErr=      0.0673983 relDifference=        44.4777 relDifferenceCellwise=     0.00135735 elapsedTime=        116.749
Iter=   8300 alpha=    5.74992e-05 beta=              1 lowLevelErr=      0.0657925 relDifference=        44.6411 relDifferenceCellwise=     0.00136234 elapsedTime=        118.236
Iter=   8400 alpha=     5.6985e-05 beta=              1 lowLevelErr=      0.0642603 relDifference=        44.8113 relDifferenceCellwise=     0.00136753 elapsedTime=        119.728
Iter=   8500 alpha=    5.64814e-05 beta=              1 lowLevelErr=      0.0628004 relDifference=         45.006 relDifferenceCellwise=     0.00137347 elapsedTime=        121.228
Iter=   8600 alpha=    5.59882e-05 beta=              1 lowLevelErr=       0.061408 relDifference=        45.1797 relDifferenceCellwise=     0.00137878 elapsedTime=        122.731
Iter=   8700 alpha=    5.55048e-05 beta=              1 lowLevelErr=      0.0600877 relDifference=        45.3631 relDifferenceCellwise=     0.00138437 elapsedTime=        124.217
Iter=   8800 alpha=    5.50311e-05 beta=              1 lowLevelErr=      0.0588317 relDifference=        45.5256 relDifferenceCellwise=     0.00138933 elapsedTime=        125.815
Iter=   8900 alpha=    5.45667e-05 beta=              1 lowLevelErr=      0.0576364 relDifference=        45.6023 relDifferenceCellwise=     0.00139167 elapsedTime=        127.418
Iter=   9000 alpha=    5.41113e-05 beta=              1 lowLevelErr=      0.0564982 relDifference=        45.6314 relDifferenceCellwise=     0.00139256 elapsedTime=        128.966
Iter=   9100 alpha=    5.36647e-05 beta=              1 lowLevelErr=      0.0554146 relDifference=        45.6147 relDifferenceCellwise=     0.00139205 elapsedTime=        130.521
Iter=   9200 alpha=    5.32267e-05 beta=              1 lowLevelErr=      0.0543804 relDifference=        45.4726 relDifferenceCellwise=     0.00138771 elapsedTime=          132.1
Iter=   9300 alpha=    5.27968e-05 beta=              1 lowLevelErr=      0.0533924 relDifference=        45.2478 relDifferenceCellwise=     0.00138085 elapsedTime=        133.581
Iter=   9400 alpha=     5.2375e-05 beta=              1 lowLevelErr=      0.0524443 relDifference=         44.924 relDifferenceCellwise=     0.00137097 elapsedTime=        135.034
Iter=   9500 alpha=     5.1961e-05 beta=              1 lowLevelErr=      0.0515311 relDifference=         44.539 relDifferenceCellwise=     0.00135922 elapsedTime=        136.487
Iter=   9600 alpha=    5.15545e-05 beta=              1 lowLevelErr=      0.0506499 relDifference=        44.1266 relDifferenceCellwise=     0.00134664 elapsedTime=        137.941
Iter=   9700 alpha=    5.11554e-05 beta=              1 lowLevelErr=      0.0497928 relDifference=        43.6419 relDifferenceCellwise=     0.00133185 elapsedTime=        139.448
Iter=   9800 alpha=    5.07634e-05 beta=              1 lowLevelErr=      0.0489532 relDifference=        43.0773 relDifferenceCellwise=     0.00131462 elapsedTime=        140.905
Iter=   9900 alpha=    5.03783e-05 beta=              1 lowLevelErr=       0.048126 relDifference=        42.4992 relDifferenceCellwise=     0.00129697 elapsedTime=        142.361
Iter=  10000 alpha=          5e-05 beta=              1 lowLevelErr=      0.0473062 relDifference=        41.9313 relDifferenceCellwise=     0.00127964 elapsedTime=        143.845
Iter=  10100 alpha=    4.96283e-05 beta=              1 lowLevelErr=      0.0464891 relDifference=        41.3526 relDifferenceCellwise=     0.00126198 elapsedTime=        145.354
Iter=  10200 alpha=    4.92629e-05 beta=              1 lowLevelErr=      0.0456719 relDifference=        40.8235 relDifferenceCellwise=     0.00124583 elapsedTime=        146.856
Iter=  10300 alpha=    4.89037e-05 beta=              1 lowLevelErr=      0.0448555 relDifference=        40.2462 relDifferenceCellwise=     0.00122822 elapsedTime=        148.351
Iter=  10400 alpha=    4.85506e-05 beta=              1 lowLevelErr=      0.0440378 relDifference=        39.7447 relDifferenceCellwise=     0.00121291 elapsedTime=        149.841
Iter=  10500 alpha=    4.82034e-05 beta=              1 lowLevelErr=      0.0432246 relDifference=        39.1763 relDifferenceCellwise=     0.00119557 elapsedTime=        151.349
Iter=  10600 alpha=     4.7862e-05 beta=              1 lowLevelErr=      0.0424143 relDifference=        38.7907 relDifferenceCellwise=      0.0011838 elapsedTime=        152.837
Iter=  10700 alpha=    4.75261e-05 beta=              1 lowLevelErr=      0.0416081 relDifference=        38.4583 relDifferenceCellwise=     0.00117365 elapsedTime=        154.338
Iter=  10800 alpha=    4.71957e-05 beta=              1 lowLevelErr=      0.0408106 relDifference=        38.1576 relDifferenceCellwise=     0.00116448 elapsedTime=         155.84
Iter=  10900 alpha=    4.68706e-05 beta=              1 lowLevelErr=      0.0400225 relDifference=        37.6176 relDifferenceCellwise=       0.001148 elapsedTime=        157.396
Iter=  11000 alpha=    4.65506e-05 beta=              1 lowLevelErr=      0.0392464 relDifference=        37.2869 relDifferenceCellwise=     0.00113791 elapsedTime=        158.975
Iter=  11100 alpha=    4.62357e-05 beta=              1 lowLevelErr=       0.038483 relDifference=        36.9136 relDifferenceCellwise=     0.00112651 elapsedTime=        160.502
Iter=  11200 alpha=    4.59258e-05 beta=              1 lowLevelErr=      0.0377319 relDifference=        36.6917 relDifferenceCellwise=     0.00111974 elapsedTime=        162.276
Iter=  11300 alpha=    4.56206e-05 beta=              1 lowLevelErr=      0.0369952 relDifference=        36.4618 relDifferenceCellwise=     0.00111273 elapsedTime=        164.752
Iter=  11400 alpha=    4.53202e-05 beta=              1 lowLevelErr=      0.0362748 relDifference=        36.2006 relDifferenceCellwise=     0.00110475 elapsedTime=        166.203
Iter=  11500 alpha=    4.50243e-05 beta=              1 lowLevelErr=      0.0355698 relDifference=        35.8475 relDifferenceCellwise=     0.00109398 elapsedTime=        167.664
Iter=  11600 alpha=    4.47328e-05 beta=              1 lowLevelErr=      0.0348793 relDifference=        35.3761 relDifferenceCellwise=     0.00107959 elapsedTime=        169.107
Iter=  11700 alpha=    4.44458e-05 beta=              1 lowLevelErr=      0.0342015 relDifference=         34.687 relDifferenceCellwise=     0.00105856 elapsedTime=        170.599
Iter=  11800 alpha=     4.4163e-05 beta=              1 lowLevelErr=      0.0335398 relDifference=        34.5176 relDifferenceCellwise=     0.00105339 elapsedTime=        172.048
Iter=  11900 alpha=    4.38844e-05 beta=              1 lowLevelErr=      0.0328919 relDifference=        34.2528 relDifferenceCellwise=     0.00104531 elapsedTime=        173.506
Iter=  12000 alpha=    4.36098e-05 beta=              1 lowLevelErr=      0.0322584 relDifference=        34.1407 relDifferenceCellwise=     0.00104189 elapsedTime=        174.964
Iter=  12100 alpha=    4.33392e-05 beta=              1 lowLevelErr=      0.0316391 relDifference=        34.0574 relDifferenceCellwise=     0.00103935 elapsedTime=        176.505
Iter=  12200 alpha=    4.30725e-05 beta=              1 lowLevelErr=      0.0310336 relDifference=        33.9593 relDifferenceCellwise=     0.00103635 elapsedTime=        178.002
Iter=  12300 alpha=    4.28096e-05 beta=              1 lowLevelErr=      0.0304412 relDifference=        33.9014 relDifferenceCellwise=     0.00103459 elapsedTime=        179.488
Iter=  12400 alpha=    4.25504e-05 beta=              1 lowLevelErr=      0.0298616 relDifference=        33.7765 relDifferenceCellwise=     0.00103078 elapsedTime=        180.983
Iter=  12500 alpha=    4.22949e-05 beta=              1 lowLevelErr=      0.0292926 relDifference=        33.6327 relDifferenceCellwise=     0.00102639 elapsedTime=        182.483
Iter=  12600 alpha=    4.20428e-05 beta=              1 lowLevelErr=      0.0287344 relDifference=        33.4948 relDifferenceCellwise=     0.00102218 elapsedTime=        183.976
Iter=  12700 alpha=    4.17943e-05 beta=              1 lowLevelErr=      0.0281882 relDifference=        33.3281 relDifferenceCellwise=     0.00101709 elapsedTime=        185.476
Iter=  12800 alpha=    4.15492e-05 beta=              1 lowLevelErr=      0.0276539 relDifference=        32.9139 relDifferenceCellwise=     0.00100445 elapsedTime=        186.992
Iter=  12900 alpha=    4.13074e-05 beta=              1 lowLevelErr=      0.0271303 relDifference=         32.799 relDifferenceCellwise=     0.00100095 elapsedTime=        188.549
Iter=  13000 alpha=    4.10688e-05 beta=              1 lowLevelErr=      0.0266166 relDifference=        32.6932 relDifferenceCellwise=    0.000997717 elapsedTime=        190.125
Iter=  13100 alpha=    4.08335e-05 beta=              1 lowLevelErr=      0.0261135 relDifference=        32.6254 relDifferenceCellwise=    0.000995649 elapsedTime=        191.611
Iter=  13200 alpha=    4.06013e-05 beta=              1 lowLevelErr=      0.0256221 relDifference=        32.5123 relDifferenceCellwise=    0.000992197 elapsedTime=        193.097
Iter=  13300 alpha=    4.03721e-05 beta=              1 lowLevelErr=      0.0251407 relDifference=        32.3886 relDifferenceCellwise=    0.000988423 elapsedTime=        194.634
Iter=  13400 alpha=    4.01459e-05 beta=              1 lowLevelErr=      0.0246687 relDifference=        32.2006 relDifferenceCellwise=    0.000982685 elapsedTime=        196.125
Iter=  13500 alpha=    3.99227e-05 beta=              1 lowLevelErr=      0.0242057 relDifference=        32.0273 relDifferenceCellwise=    0.000977394 elapsedTime=        197.611
Iter=  13600 alpha=    3.97023e-05 beta=              1 lowLevelErr=      0.0237515 relDifference=        31.8732 relDifferenceCellwise=    0.000972692 elapsedTime=        199.099
Iter=  13700 alpha=    3.94848e-05 beta=              1 lowLevelErr=      0.0233063 relDifference=        31.6008 relDifferenceCellwise=     0.00096438 elapsedTime=        200.588
Iter=  13800 alpha=      3.927e-05 beta=              1 lowLevelErr=      0.0228707 relDifference=        31.3462 relDifferenceCellwise=    0.000956611 elapsedTime=        202.074
Iter=  13900 alpha=    3.90579e-05 beta=              1 lowLevelErr=      0.0224429 relDifference=        31.1341 relDifferenceCellwise=    0.000950139 elapsedTime=        203.573
Iter=  14000 alpha=    3.88485e-05 beta=              1 lowLevelErr=       0.022023 relDifference=         30.989 relDifferenceCellwise=    0.000945708 elapsedTime=        205.104
Iter=  14100 alpha=    3.86417e-05 beta=              1 lowLevelErr=      0.0216117 relDifference=        30.8297 relDifferenceCellwise=    0.000940846 elapsedTime=        206.596
Iter=  14200 alpha=    3.84374e-05 beta=              1 lowLevelErr=      0.0212086 relDifference=        30.5467 relDifferenceCellwise=     0.00093221 elapsedTime=        208.088
Iter=  14300 alpha=    3.82356e-05 beta=              1 lowLevelErr=      0.0208127 relDifference=        30.3968 relDifferenceCellwise=    0.000927638 elapsedTime=        209.578
Iter=  14400 alpha=    3.80363e-05 beta=              1 lowLevelErr=      0.0204254 relDifference=        30.2522 relDifferenceCellwise=    0.000923222 elapsedTime=         211.07
Iter=  14500 alpha=    3.78394e-05 beta=              1 lowLevelErr=      0.0200459 relDifference=        30.0069 relDifferenceCellwise=    0.000915737 elapsedTime=        212.565
Iter=  14600 alpha=    3.76448e-05 beta=              1 lowLevelErr=      0.0196728 relDifference=        29.7479 relDifferenceCellwise=    0.000907834 elapsedTime=        214.052
Iter=  14700 alpha=    3.74526e-05 beta=              1 lowLevelErr=      0.0193074 relDifference=        29.5348 relDifferenceCellwise=    0.000901331 elapsedTime=        215.539
Iter=  14800 alpha=    3.72626e-05 beta=              1 lowLevelErr=      0.0189492 relDifference=        29.3217 relDifferenceCellwise=    0.000894829 elapsedTime=        217.025
Iter=  14900 alpha=    3.70749e-05 beta=              1 lowLevelErr=      0.0185985 relDifference=        29.1111 relDifferenceCellwise=    0.000888399 elapsedTime=        218.514
Iter=  15000 alpha=    3.68894e-05 beta=              1 lowLevelErr=      0.0182551 relDifference=        28.8526 relDifferenceCellwise=    0.000880512 elapsedTime=        219.998
Iter=  15100 alpha=     3.6706e-05 beta=              1 lowLevelErr=      0.0179187 relDifference=        28.5569 relDifferenceCellwise=    0.000871487 elapsedTime=        221.483
Iter=  15200 alpha=    3.65248e-05 beta=              1 lowLevelErr=      0.0175895 relDifference=         28.363 relDifferenceCellwise=    0.000865569 elapsedTime=        222.973
Iter=  15300 alpha=    3.63456e-05 beta=              1 lowLevelErr=      0.0172669 relDifference=        28.0473 relDifferenceCellwise=    0.000855937 elapsedTime=        224.474
Iter=  15400 alpha=    3.61684e-05 beta=              1 lowLevelErr=      0.0169507 relDifference=        27.5723 relDifferenceCellwise=    0.000841439 elapsedTime=        225.986
Iter=  15500 alpha=    3.59933e-05 beta=              1 lowLevelErr=      0.0166411 relDifference=        27.2823 relDifferenceCellwise=    0.000832589 elapsedTime=        227.537
Iter=  15600 alpha=    3.58201e-05 beta=              1 lowLevelErr=      0.0163378 relDifference=        26.8483 relDifferenceCellwise=    0.000819344 elapsedTime=         229.13
Iter=  15700 alpha=    3.56488e-05 beta=              1 lowLevelErr=      0.0160405 relDifference=        26.7216 relDifferenceCellwise=    0.000815477 elapsedTime=        230.705
Iter=  15800 alpha=    3.54795e-05 beta=              1 lowLevelErr=      0.0157493 relDifference=        26.6522 relDifferenceCellwise=     0.00081336 elapsedTime=        232.184
Iter=  15900 alpha=     3.5312e-05 beta=              1 lowLevelErr=      0.0154648 relDifference=        26.5256 relDifferenceCellwise=    0.000809498 elapsedTime=        233.648
Iter=  16000 alpha=    3.51463e-05 beta=              1 lowLevelErr=      0.0151859 relDifference=        26.4512 relDifferenceCellwise=    0.000807228 elapsedTime=        235.092
Iter=  16100 alpha=    3.49825e-05 beta=              1 lowLevelErr=       0.014913 relDifference=        26.3165 relDifferenceCellwise=    0.000803116 elapsedTime=        236.548
Iter=  16200 alpha=    3.48204e-05 beta=              1 lowLevelErr=      0.0146455 relDifference=        26.2463 relDifferenceCellwise=    0.000800974 elapsedTime=        238.004
Iter=  16300 alpha=    3.46601e-05 beta=              1 lowLevelErr=      0.0143835 relDifference=        26.1384 relDifferenceCellwise=     0.00079768 elapsedTime=        239.443
Iter=  16400 alpha=    3.45014e-05 beta=              1 lowLevelErr=      0.0141271 relDifference=        26.0517 relDifferenceCellwise=    0.000795035 elapsedTime=        240.939
Iter=  16500 alpha=    3.43445e-05 beta=              1 lowLevelErr=      0.0138758 relDifference=        26.0004 relDifferenceCellwise=     0.00079347 elapsedTime=        242.433
Iter=  16600 alpha=    3.41892e-05 beta=              1 lowLevelErr=      0.0136292 relDifference=        25.9445 relDifferenceCellwise=    0.000791763 elapsedTime=        243.921
Iter=  16700 alpha=    3.40355e-05 beta=              1 lowLevelErr=      0.0133876 relDifference=        25.8849 relDifferenceCellwise=    0.000789945 elapsedTime=        245.434
Iter=  16800 alpha=    3.38835e-05 beta=              1 lowLevelErr=      0.0131513 relDifference=        25.7996 relDifferenceCellwise=    0.000787342 elapsedTime=        246.922
Iter=  16900 alpha=     3.3733e-05 beta=              1 lowLevelErr=      0.0129197 relDifference=        25.6522 relDifferenceCellwise=    0.000782844 elapsedTime=        248.404
Iter=  17000 alpha=    3.35841e-05 beta=              1 lowLevelErr=      0.0126928 relDifference=        25.5573 relDifferenceCellwise=    0.000779947 elapsedTime=        249.894
Iter=  17100 alpha=    3.34367e-05 beta=              1 lowLevelErr=      0.0124704 relDifference=        25.4244 relDifferenceCellwise=     0.00077589 elapsedTime=        251.383
Iter=  17200 alpha=    3.32908e-05 beta=              1 lowLevelErr=      0.0122522 relDifference=        25.3624 relDifferenceCellwise=    0.000773999 elapsedTime=        252.864
Iter=  17300 alpha=    3.31463e-05 beta=              1 lowLevelErr=      0.0120384 relDifference=        25.2973 relDifferenceCellwise=    0.000772011 elapsedTime=        254.359
Iter=  17400 alpha=    3.30034e-05 beta=              1 lowLevelErr=      0.0118288 relDifference=        25.2481 relDifferenceCellwise=    0.000770512 elapsedTime=        255.846
Iter=  17500 alpha=    3.28618e-05 beta=              1 lowLevelErr=      0.0116236 relDifference=        25.1753 relDifferenceCellwise=    0.000768289 elapsedTime=        257.345
Iter=  17600 alpha=    3.27217e-05 beta=              1 lowLevelErr=       0.011422 relDifference=        25.0342 relDifferenceCellwise=    0.000763984 elapsedTime=         258.84
Iter=  17700 alpha=    3.25829e-05 beta=              1 lowLevelErr=      0.0112243 relDifference=        24.9859 relDifferenceCellwise=    0.000762511 elapsedTime=        260.332
Iter=  17800 alpha=    3.24455e-05 beta=              1 lowLevelErr=      0.0110307 relDifference=         24.934 relDifferenceCellwise=    0.000760927 elapsedTime=         261.82
Iter=  17900 alpha=    3.23095e-05 beta=              1 lowLevelErr=       0.010841 relDifference=        24.8505 relDifferenceCellwise=    0.000758378 elapsedTime=        263.369
Iter=  18000 alpha=    3.21748e-05 beta=              1 lowLevelErr=       0.010655 relDifference=        24.7212 relDifferenceCellwise=     0.00075443 elapsedTime=        264.911
Iter=  18100 alpha=    3.20414e-05 beta=              1 lowLevelErr=      0.0104733 relDifference=        24.6611 relDifferenceCellwise=    0.000752598 elapsedTime=         266.48
Iter=  18200 alpha=    3.19092e-05 beta=              1 lowLevelErr=      0.0102951 relDifference=        24.6085 relDifferenceCellwise=    0.000750993 elapsedTime=        267.973
Iter=  18300 alpha=    3.17784e-05 beta=              1 lowLevelErr=      0.0101205 relDifference=        24.5588 relDifferenceCellwise=    0.000749475 elapsedTime=        269.457
Iter=  18400 alpha=    3.16488e-05 beta=              1 lowLevelErr=     0.00994956 relDifference=        24.4854 relDifferenceCellwise=    0.000747236 elapsedTime=         270.95
Iter=  18500 alpha=    3.15204e-05 beta=              1 lowLevelErr=     0.00978221 relDifference=        24.4206 relDifferenceCellwise=    0.000745257 elapsedTime=        272.443
Iter=  18600 alpha=    3.13932e-05 beta=              1 lowLevelErr=     0.00961841 relDifference=        24.3462 relDifferenceCellwise=    0.000742987 elapsedTime=        273.929
Iter=  18700 alpha=    3.12672e-05 beta=              1 lowLevelErr=     0.00945806 relDifference=        24.2635 relDifferenceCellwise=    0.000740464 elapsedTime=        275.419
Iter=  18800 alpha=    3.11424e-05 beta=              1 lowLevelErr=     0.00930091 relDifference=        24.2213 relDifferenceCellwise=    0.000739176 elapsedTime=        276.909
Iter=  18900 alpha=    3.10187e-05 beta=              1 lowLevelErr=       0.009147 relDifference=        24.1305 relDifferenceCellwise=    0.000736406 elapsedTime=        278.401
Iter=  19000 alpha=    3.08962e-05 beta=              1 lowLevelErr=     0.00899629 relDifference=        24.0592 relDifferenceCellwise=    0.000734227 elapsedTime=        279.884
Iter=  19100 alpha=    3.07748e-05 beta=              1 lowLevelErr=     0.00884876 relDifference=        24.0063 relDifferenceCellwise=    0.000732615 elapsedTime=         281.37
Iter=  19200 alpha=    3.06545e-05 beta=              1 lowLevelErr=     0.00870432 relDifference=        23.9564 relDifferenceCellwise=    0.000731091 elapsedTime=        282.857
Iter=  19300 alpha=    3.05353e-05 beta=              1 lowLevelErr=     0.00856292 relDifference=        23.9258 relDifferenceCellwise=    0.000730157 elapsedTime=        284.337
Iter=  19400 alpha=    3.04172e-05 beta=              1 lowLevelErr=     0.00842448 relDifference=        23.8679 relDifferenceCellwise=    0.000728389 elapsedTime=        285.838
Iter=  19500 alpha=    3.03001e-05 beta=              1 lowLevelErr=      0.0082888 relDifference=        23.7806 relDifferenceCellwise=    0.000725727 elapsedTime=        287.324
Iter=  19600 alpha=    3.01841e-05 beta=              1 lowLevelErr=     0.00815593 relDifference=        23.7059 relDifferenceCellwise=    0.000723447 elapsedTime=        288.813
Iter=  19700 alpha=    3.00691e-05 beta=              1 lowLevelErr=     0.00802567 relDifference=        23.6385 relDifferenceCellwise=    0.000721391 elapsedTime=        290.296
Iter=  19800 alpha=    2.99551e-05 beta=              1 lowLevelErr=     0.00789816 relDifference=        23.5768 relDifferenceCellwise=    0.000719507 elapsedTime=        291.889
Iter=  19900 alpha=    2.98422e-05 beta=              1 lowLevelErr=     0.00777344 relDifference=        23.5365 relDifferenceCellwise=    0.000718278 elapsedTime=        293.426
Iter=  20000 alpha=    2.97302e-05 beta=              1 lowLevelErr=     0.00765132 relDifference=        23.4631 relDifferenceCellwise=    0.000716038 elapsedTime=        294.946
Iter=  20100 alpha=    2.96192e-05 beta=              1 lowLevelErr=     0.00753165 relDifference=        23.3254 relDifferenceCellwise=    0.000711836 elapsedTime=        296.429
Iter=  20200 alpha=    2.95091e-05 beta=              1 lowLevelErr=     0.00741419 relDifference=         23.274 relDifferenceCellwise=    0.000710266 elapsedTime=        297.911
Iter=  20300 alpha=       2.94e-05 beta=              1 lowLevelErr=     0.00729915 relDifference=        23.1502 relDifferenceCellwise=    0.000706489 elapsedTime=        299.397
Iter=  20400 alpha=    2.92919e-05 beta=              1 lowLevelErr=     0.00718637 relDifference=        23.0777 relDifferenceCellwise=    0.000704276 elapsedTime=        300.878
Iter=  20500 alpha=    2.91847e-05 beta=              1 lowLevelErr=     0.00707607 relDifference=        23.0183 relDifferenceCellwise=    0.000702463 elapsedTime=        302.364
Iter=  20600 alpha=    2.90783e-05 beta=              1 lowLevelErr=     0.00696819 relDifference=        22.9493 relDifferenceCellwise=    0.000700358 elapsedTime=        303.863
Iter=  20700 alpha=    2.89729e-05 beta=              1 lowLevelErr=     0.00686267 relDifference=        22.9031 relDifferenceCellwise=    0.000698948 elapsedTime=        305.351
Iter=  20800 alpha=    2.88684e-05 beta=              1 lowLevelErr=     0.00675929 relDifference=        22.7975 relDifferenceCellwise=    0.000695726 elapsedTime=        306.804
Iter=  20900 alpha=    2.87647e-05 beta=              1 lowLevelErr=     0.00665817 relDifference=        22.7689 relDifferenceCellwise=    0.000694852 elapsedTime=        308.264
Iter=  21000 alpha=    2.86619e-05 beta=              1 lowLevelErr=     0.00655929 relDifference=        22.7245 relDifferenceCellwise=    0.000693497 elapsedTime=        309.738
Iter=  21100 alpha=      2.856e-05 beta=              1 lowLevelErr=     0.00646234 relDifference=        22.6956 relDifferenceCellwise=    0.000692615 elapsedTime=        311.212
Iter=  21200 alpha=    2.84589e-05 beta=              1 lowLevelErr=     0.00636745 relDifference=        22.6565 relDifferenceCellwise=     0.00069142 elapsedTime=        312.676
Iter=  21300 alpha=    2.83586e-05 beta=              1 lowLevelErr=     0.00627457 relDifference=        22.6115 relDifferenceCellwise=    0.000690048 elapsedTime=        314.148
Iter=  21400 alpha=    2.82592e-05 beta=              1 lowLevelErr=     0.00618378 relDifference=        22.5258 relDifferenceCellwise=    0.000687432 elapsedTime=        315.643
Iter=  21500 alpha=    2.81606e-05 beta=              1 lowLevelErr=     0.00609492 relDifference=        22.4801 relDifferenceCellwise=    0.000686038 elapsedTime=        317.145
Iter=  21600 alpha=    2.80627e-05 beta=              1 lowLevelErr=     0.00600796 relDifference=        22.4441 relDifferenceCellwise=    0.000684941 elapsedTime=        318.662
Iter=  21700 alpha=    2.79657e-05 beta=              1 lowLevelErr=      0.0059227 relDifference=        22.4005 relDifferenceCellwise=    0.000683609 elapsedTime=        320.165
Iter=  21800 alpha=    2.78694e-05 beta=              1 lowLevelErr=     0.00583906 relDifference=        22.3345 relDifferenceCellwise=    0.000681594 elapsedTime=        321.669
Iter=  21900 alpha=    2.77739e-05 beta=              1 lowLevelErr=     0.00575728 relDifference=        22.2949 relDifferenceCellwise=    0.000680387 elapsedTime=        323.176
Iter=  22000 alpha=    2.76792e-05 beta=              1 lowLevelErr=     0.00567715 relDifference=        22.2112 relDifferenceCellwise=    0.000677832 elapsedTime=        324.688
Iter=  22100 alpha=    2.75852e-05 beta=              1 lowLevelErr=     0.00559877 relDifference=        22.1566 relDifferenceCellwise=    0.000676167 elapsedTime=         326.19
Iter=  22200 alpha=    2.74919e-05 beta=              1 lowLevelErr=     0.00552205 relDifference=        22.1239 relDifferenceCellwise=    0.000675169 elapsedTime=        327.696
Iter=  22300 alpha=    2.73994e-05 beta=              1 lowLevelErr=     0.00544686 relDifference=        22.0779 relDifferenceCellwise=    0.000673765 elapsedTime=        329.231
Iter=  22400 alpha=    2.73076e-05 beta=              1 lowLevelErr=     0.00537307 relDifference=        22.0312 relDifferenceCellwise=    0.000672338 elapsedTime=        330.852
Iter=  22500 alpha=    2.72166e-05 beta=              1 lowLevelErr=     0.00530095 relDifference=        21.9672 relDifferenceCellwise=    0.000670386 elapsedTime=        332.432
Iter=  22600 alpha=    2.71262e-05 beta=              1 lowLevelErr=     0.00523039 relDifference=        21.9595 relDifferenceCellwise=    0.000670152 elapsedTime=        333.891
Iter=  22700 alpha=    2.70365e-05 beta=              1 lowLevelErr=     0.00516125 relDifference=        21.8988 relDifferenceCellwise=    0.000668299 elapsedTime=        335.337
Iter=  22800 alpha=    2.69475e-05 beta=              1 lowLevelErr=     0.00509355 relDifference=         21.855 relDifferenceCellwise=     0.00066696 elapsedTime=        336.789
Iter=  22900 alpha=    2.68592e-05 beta=              1 lowLevelErr=     0.00502719 relDifference=        21.8031 relDifferenceCellwise=    0.000665377 elapsedTime=        338.251
Iter=  23000 alpha=    2.67716e-05 beta=              1 lowLevelErr=     0.00496213 relDifference=         21.766 relDifferenceCellwise=    0.000664246 elapsedTime=        339.722
Iter=  23100 alpha=    2.66846e-05 beta=              1 lowLevelErr=     0.00489836 relDifference=          21.66 relDifferenceCellwise=    0.000661011 elapsedTime=        341.229
Iter=  23200 alpha=    2.65983e-05 beta=              1 lowLevelErr=     0.00483594 relDifference=        21.6359 relDifferenceCellwise=    0.000660275 elapsedTime=        342.731
Iter=  23300 alpha=    2.65126e-05 beta=              1 lowLevelErr=     0.00477476 relDifference=          21.61 relDifferenceCellwise=    0.000659485 elapsedTime=        344.338
Iter=  23400 alpha=    2.64276e-05 beta=              1 lowLevelErr=     0.00471479 relDifference=        21.5502 relDifferenceCellwise=    0.000657659 elapsedTime=         345.91
Iter=  23500 alpha=    2.63432e-05 beta=              1 lowLevelErr=     0.00465604 relDifference=        21.5162 relDifferenceCellwise=    0.000656622 elapsedTime=        347.465
Iter=  23600 alpha=    2.62595e-05 beta=              1 lowLevelErr=     0.00459844 relDifference=        21.4748 relDifferenceCellwise=     0.00065536 elapsedTime=        349.018
Iter=  23700 alpha=    2.61763e-05 beta=              1 lowLevelErr=     0.00454198 relDifference=        21.4539 relDifferenceCellwise=     0.00065472 elapsedTime=        350.543
Iter=  23800 alpha=    2.60938e-05 beta=              1 lowLevelErr=     0.00448655 relDifference=        21.4022 relDifferenceCellwise=    0.000653142 elapsedTime=        352.062
Iter=  23900 alpha=    2.60119e-05 beta=              1 lowLevelErr=     0.00443235 relDifference=        21.3603 relDifferenceCellwise=    0.000651865 elapsedTime=        353.628
Iter=  24000 alpha=    2.59305e-05 beta=              1 lowLevelErr=     0.00437922 relDifference=        21.3193 relDifferenceCellwise=    0.000650615 elapsedTime=        355.128
Iter=  24100 alpha=    2.58498e-05 beta=              1 lowLevelErr=      0.0043271 relDifference=        21.3072 relDifferenceCellwise=    0.000650245 elapsedTime=        356.619
Iter=  24200 alpha=    2.57696e-05 beta=              1 lowLevelErr=     0.00427595 relDifference=        21.2795 relDifferenceCellwise=    0.000649397 elapsedTime=        358.157
Iter=  24300 alpha=    2.56901e-05 beta=              1 lowLevelErr=     0.00422582 relDifference=         21.269 relDifferenceCellwise=    0.000649078 elapsedTime=        359.734
Iter=  24400 alpha=    2.56111e-05 beta=              1 lowLevelErr=     0.00417666 relDifference=        21.2423 relDifferenceCellwise=    0.000648265 elapsedTime=        361.288
Iter=  24500 alpha=    2.55326e-05 beta=              1 lowLevelErr=     0.00412838 relDifference=        21.2022 relDifferenceCellwise=    0.000647039 elapsedTime=        362.827
Iter=  24600 alpha=    2.54547e-05 beta=              1 lowLevelErr=     0.00408095 relDifference=        21.1825 relDifferenceCellwise=    0.000646438 elapsedTime=        364.389
Iter=  24700 alpha=    2.53774e-05 beta=              1 lowLevelErr=     0.00403444 relDifference=        21.1718 relDifferenceCellwise=    0.000646111 elapsedTime=        365.987
Iter=  24800 alpha=    2.53006e-05 beta=              1 lowLevelErr=     0.00398881 relDifference=          21.14 relDifferenceCellwise=     0.00064514 elapsedTime=        367.572
Iter=  24900 alpha=    2.52244e-05 beta=              1 lowLevelErr=     0.00394399 relDifference=        21.1202 relDifferenceCellwise=    0.000644536 elapsedTime=        369.079
Iter=  25000 alpha=    2.51487e-05 beta=              1 lowLevelErr=         0.0039 relDifference=        21.0796 relDifferenceCellwise=    0.000643298 elapsedTime=        370.538
Iter=  25100 alpha=    2.50735e-05 beta=              1 lowLevelErr=     0.00385677 relDifference=         21.042 relDifferenceCellwise=     0.00064215 elapsedTime=        372.004
Iter=  25200 alpha=    2.49988e-05 beta=              1 lowLevelErr=     0.00381425 relDifference=        20.9952 relDifferenceCellwise=    0.000640723 elapsedTime=        373.464
Iter=  25300 alpha=    2.49247e-05 beta=              1 lowLevelErr=      0.0037726 relDifference=        20.9667 relDifferenceCellwise=    0.000639854 elapsedTime=        374.921
Iter=  25400 alpha=     2.4851e-05 beta=              1 lowLevelErr=     0.00373167 relDifference=        20.9469 relDifferenceCellwise=    0.000639248 elapsedTime=        376.376
Iter=  25500 alpha=    2.47779e-05 beta=              1 lowLevelErr=     0.00369143 relDifference=        20.8618 relDifferenceCellwise=    0.000636653 elapsedTime=        377.833
Iter=  25600 alpha=    2.47053e-05 beta=              1 lowLevelErr=     0.00365183 relDifference=         20.809 relDifferenceCellwise=    0.000635041 elapsedTime=        379.293
Iter=  25700 alpha=    2.46332e-05 beta=              1 lowLevelErr=      0.0036129 relDifference=        20.7766 relDifferenceCellwise=    0.000634053 elapsedTime=        380.793
Iter=  25800 alpha=    2.45615e-05 beta=              1 lowLevelErr=     0.00357461 relDifference=        20.7295 relDifferenceCellwise=    0.000632615 elapsedTime=        382.354
Iter=  25900 alpha=    2.44904e-05 beta=              1 lowLevelErr=     0.00353701 relDifference=         20.692 relDifferenceCellwise=    0.000631469 elapsedTime=        383.868
Iter=  26000 alpha=    2.44197e-05 beta=              1 lowLevelErr=     0.00349996 relDifference=        20.6693 relDifferenceCellwise=    0.000630777 elapsedTime=         385.38
Iter=  26100 alpha=    2.43495e-05 beta=              1 lowLevelErr=     0.00346355 relDifference=        20.6423 relDifferenceCellwise=    0.000629954 elapsedTime=        386.849
Iter=  26200 alpha=    2.42797e-05 beta=              1 lowLevelErr=     0.00342777 relDifference=        20.6172 relDifferenceCellwise=    0.000629186 elapsedTime=        388.301
Iter=  26300 alpha=    2.42105e-05 beta=              1 lowLevelErr=     0.00339251 relDifference=        20.5305 relDifferenceCellwise=    0.000626541 elapsedTime=        389.763
Iter=  26400 alpha=    2.41417e-05 beta=              1 lowLevelErr=     0.00335784 relDifference=        20.4695 relDifferenceCellwise=    0.000624679 elapsedTime=        391.226
Iter=  26500 alpha=    2.40733e-05 beta=              1 lowLevelErr=     0.00332371 relDifference=        20.4379 relDifferenceCellwise=    0.000623715 elapsedTime=        392.683
Iter=  26600 alpha=    2.40054e-05 beta=              1 lowLevelErr=     0.00329004 relDifference=         20.394 relDifferenceCellwise=    0.000622375 elapsedTime=         394.16
Iter=  26700 alpha=    2.39379e-05 beta=              1 lowLevelErr=       0.003257 relDifference=        20.3727 relDifferenceCellwise=    0.000621726 elapsedTime=        395.626
Iter=  26800 alpha=    2.38709e-05 beta=              1 lowLevelErr=     0.00322443 relDifference=        20.3134 relDifferenceCellwise=    0.000619915 elapsedTime=        397.124
Iter=  26900 alpha=    2.38043e-05 beta=              1 lowLevelErr=      0.0031924 relDifference=        20.2809 relDifferenceCellwise=    0.000618925 elapsedTime=        398.668
Iter=  27000 alpha=    2.37382e-05 beta=              1 lowLevelErr=     0.00316082 relDifference=        20.2389 relDifferenceCellwise=    0.000617643 elapsedTime=        400.258
Iter=  27100 alpha=    2.36724e-05 beta=              1 lowLevelErr=      0.0031297 relDifference=        20.1654 relDifferenceCellwise=      0.0006154 elapsedTime=        401.846
Iter=  27200 alpha=    2.36071e-05 beta=              1 lowLevelErr=     0.00309908 relDifference=         20.123 relDifferenceCellwise=    0.000614107 elapsedTime=        403.317
Iter=  27300 alpha=    2.35423e-05 beta=              1 lowLevelErr=     0.00306891 relDifference=        20.0882 relDifferenceCellwise=    0.000613042 elapsedTime=        404.775
Iter=  27400 alpha=    2.34778e-05 beta=              1 lowLevelErr=     0.00303923 relDifference=        20.0515 relDifferenceCellwise=    0.000611922 elapsedTime=        406.241
Iter=  27500 alpha=    2.34137e-05 beta=              1 lowLevelErr=     0.00300997 relDifference=        19.9998 relDifferenceCellwise=    0.000610344 elapsedTime=        407.709
Iter=  27600 alpha=    2.33501e-05 beta=              1 lowLevelErr=     0.00298116 relDifference=        19.9627 relDifferenceCellwise=    0.000609214 elapsedTime=        409.193
Iter=  27700 alpha=    2.32868e-05 beta=              1 lowLevelErr=     0.00295274 relDifference=        19.9229 relDifferenceCellwise=       0.000608 elapsedTime=        410.675
Iter=  27800 alpha=     2.3224e-05 beta=              1 lowLevelErr=     0.00292472 relDifference=        19.8656 relDifferenceCellwise=    0.000606249 elapsedTime=        412.143
Iter=  27900 alpha=    2.31615e-05 beta=              1 lowLevelErr=     0.00289702 relDifference=        19.7774 relDifferenceCellwise=     0.00060356 elapsedTime=        413.614
Iter=  28000 alpha=    2.30994e-05 beta=              1 lowLevelErr=     0.00286959 relDifference=        19.6918 relDifferenceCellwise=    0.000600946 elapsedTime=        415.096
Iter=  28100 alpha=    2.30378e-05 beta=              1 lowLevelErr=     0.00284246 relDifference=        19.5668 relDifferenceCellwise=    0.000597132 elapsedTime=        416.567
Iter=  28200 alpha=    2.29765e-05 beta=              1 lowLevelErr=     0.00281551 relDifference=        19.4942 relDifferenceCellwise=    0.000594917 elapsedTime=        418.035
Iter=  28300 alpha=    2.29155e-05 beta=              1 lowLevelErr=     0.00278896 relDifference=        19.4452 relDifferenceCellwise=     0.00059342 elapsedTime=        419.503
Iter=  28400 alpha=     2.2855e-05 beta=              1 lowLevelErr=     0.00276279 relDifference=        19.3587 relDifferenceCellwise=    0.000590782 elapsedTime=        420.976
Iter=  28500 alpha=    2.27948e-05 beta=              1 lowLevelErr=     0.00273703 relDifference=        19.3104 relDifferenceCellwise=    0.000589308 elapsedTime=        422.453
Iter=  28600 alpha=     2.2735e-05 beta=              1 lowLevelErr=     0.00271164 relDifference=        19.2227 relDifferenceCellwise=    0.000586631 elapsedTime=        423.934
Iter=  28700 alpha=    2.26756e-05 beta=              1 lowLevelErr=     0.00268664 relDifference=        19.1687 relDifferenceCellwise=    0.000584983 elapsedTime=        425.415
Iter=  28800 alpha=    2.26165e-05 beta=              1 lowLevelErr=     0.00266198 relDifference=        19.0743 relDifferenceCellwise=    0.000582101 elapsedTime=        426.987
Iter=  28900 alpha=    2.25578e-05 beta=              1 lowLevelErr=      0.0026377 relDifference=        19.0301 relDifferenceCellwise=    0.000580753 elapsedTime=        428.527
Iter=  29000 alpha=    2.24994e-05 beta=              1 lowLevelErr=     0.00261371 relDifference=        18.9709 relDifferenceCellwise=    0.000578946 elapsedTime=        430.038
Iter=  29100 alpha=    2.24414e-05 beta=              1 lowLevelErr=     0.00259004 relDifference=        18.9269 relDifferenceCellwise=    0.000577604 elapsedTime=         431.59
Iter=  29200 alpha=    2.23838e-05 beta=              1 lowLevelErr=     0.00256667 relDifference=        18.8725 relDifferenceCellwise=    0.000575944 elapsedTime=        433.175
Iter=  29300 alpha=    2.23264e-05 beta=              1 lowLevelErr=      0.0025437 relDifference=        18.8368 relDifferenceCellwise=    0.000574852 elapsedTime=        434.757
Iter=  29400 alpha=    2.22695e-05 beta=              1 lowLevelErr=     0.00252103 relDifference=         18.804 relDifferenceCellwise=    0.000573852 elapsedTime=         436.26
Iter=  29500 alpha=    2.22128e-05 beta=              1 lowLevelErr=     0.00249869 relDifference=        18.7773 relDifferenceCellwise=    0.000573037 elapsedTime=         437.77
Iter=  29600 alpha=    2.21565e-05 beta=              1 lowLevelErr=     0.00247668 relDifference=        18.7341 relDifferenceCellwise=    0.000571718 elapsedTime=        439.276
Iter=  29700 alpha=    2.21005e-05 beta=              1 lowLevelErr=     0.00245507 relDifference=        18.7278 relDifferenceCellwise=    0.000571528 elapsedTime=        440.783
Iter=  29800 alpha=    2.20449e-05 beta=              1 lowLevelErr=     0.00243375 relDifference=        18.6849 relDifferenceCellwise=    0.000570218 elapsedTime=        442.277
Iter=  29900 alpha=    2.19896e-05 beta=              1 lowLevelErr=     0.00241275 relDifference=        18.6754 relDifferenceCellwise=    0.000569927 elapsedTime=        443.791
Iter=  30000 alpha=    2.19346e-05 beta=              1 lowLevelErr=     0.00239202 relDifference=        18.6051 relDifferenceCellwise=    0.000567782 elapsedTime=        445.304
Iter=  30100 alpha=    2.18799e-05 beta=              1 lowLevelErr=     0.00237155 relDifference=         18.586 relDifferenceCellwise=      0.0005672 elapsedTime=        446.809
Iter=  30200 alpha=    2.18255e-05 beta=              1 lowLevelErr=     0.00235138 relDifference=        18.5543 relDifferenceCellwise=    0.000566233 elapsedTime=        448.314
Iter=  30300 alpha=    2.17715e-05 beta=              1 lowLevelErr=     0.00233155 relDifference=        18.5275 relDifferenceCellwise=    0.000565414 elapsedTime=        449.818
Iter=  30400 alpha=    2.17177e-05 beta=              1 lowLevelErr=      0.0023119 relDifference=           18.5 relDifferenceCellwise=    0.000564574 elapsedTime=        451.329
Iter=  30500 alpha=    2.16643e-05 beta=              1 lowLevelErr=     0.00229254 relDifference=        18.4868 relDifferenceCellwise=    0.000564172 elapsedTime=        452.846
Iter=  30600 alpha=    2.16112e-05 beta=              1 lowLevelErr=     0.00227343 relDifference=        18.4523 relDifferenceCellwise=     0.00056312 elapsedTime=        454.362
Iter=  30700 alpha=    2.15584e-05 beta=              1 lowLevelErr=     0.00225462 relDifference=        18.4252 relDifferenceCellwise=    0.000562292 elapsedTime=        455.872
Iter=  30800 alpha=    2.15059e-05 beta=              1 lowLevelErr=       0.002236 relDifference=        18.3788 relDifferenceCellwise=    0.000560875 elapsedTime=        457.379
Iter=  30900 alpha=    2.14536e-05 beta=              1 lowLevelErr=     0.00221761 relDifference=        18.3456 relDifferenceCellwise=    0.000559864 elapsedTime=        458.885
Iter=  31000 alpha=    2.14017e-05 beta=              1 lowLevelErr=      0.0021994 relDifference=        18.3123 relDifferenceCellwise=    0.000558846 elapsedTime=         460.39
Iter=  31100 alpha=    2.13501e-05 beta=              1 lowLevelErr=     0.00218139 relDifference=        18.2826 relDifferenceCellwise=    0.000557939 elapsedTime=        461.887
Iter=  31200 alpha=    2.12987e-05 beta=              1 lowLevelErr=     0.00216358 relDifference=        18.2695 relDifferenceCellwise=     0.00055754 elapsedTime=        463.394
Iter=  31300 alpha=    2.12477e-05 beta=              1 lowLevelErr=     0.00214603 relDifference=         18.198 relDifferenceCellwise=     0.00055536 elapsedTime=        464.889
Iter=  31400 alpha=    2.11969e-05 beta=              1 lowLevelErr=     0.00212872 relDifference=        18.1867 relDifferenceCellwise=    0.000555013 elapsedTime=        466.407
Iter=  31500 alpha=    2.11464e-05 beta=              1 lowLevelErr=      0.0021116 relDifference=        18.1392 relDifferenceCellwise=    0.000553565 elapsedTime=        467.899
Iter=  31600 alpha=    2.10962e-05 beta=              1 lowLevelErr=     0.00209464 relDifference=        18.0842 relDifferenceCellwise=    0.000551885 elapsedTime=        469.415
Iter=  31700 alpha=    2.10463e-05 beta=              1 lowLevelErr=     0.00207788 relDifference=        18.0668 relDifferenceCellwise=    0.000551354 elapsedTime=        470.922
Iter=  31800 alpha=    2.09966e-05 beta=              1 lowLevelErr=      0.0020613 relDifference=        18.0391 relDifferenceCellwise=     0.00055051 elapsedTime=        472.418
Iter=  31900 alpha=    2.09472e-05 beta=              1 lowLevelErr=     0.00204489 relDifference=        18.0186 relDifferenceCellwise=    0.000549883 elapsedTime=        473.917
Iter=  32000 alpha=    2.08981e-05 beta=              1 lowLevelErr=     0.00202863 relDifference=        17.9252 relDifferenceCellwise=    0.000547034 elapsedTime=        475.424
Iter=  32100 alpha=    2.08493e-05 beta=              1 lowLevelErr=     0.00201249 relDifference=        17.8704 relDifferenceCellwise=     0.00054536 elapsedTime=         476.94
Iter=  32200 alpha=    2.08007e-05 beta=              1 lowLevelErr=     0.00199635 relDifference=        17.7527 relDifferenceCellwise=     0.00054177 elapsedTime=        478.455
Iter=  32300 alpha=    2.07524e-05 beta=              1 lowLevelErr=     0.00198036 relDifference=        17.6837 relDifferenceCellwise=    0.000539664 elapsedTime=        479.948
Iter=  32400 alpha=    2.07043e-05 beta=              1 lowLevelErr=     0.00196449 relDifference=         17.613 relDifferenceCellwise=    0.000537505 elapsedTime=        481.453
Iter=  32500 alpha=    2.06565e-05 beta=              1 lowLevelErr=     0.00194886 relDifference=        17.5617 relDifferenceCellwise=    0.000535939 elapsedTime=        482.965
Iter=  32600 alpha=     2.0609e-05 beta=              1 lowLevelErr=     0.00193343 relDifference=        17.4814 relDifferenceCellwise=    0.000533491 elapsedTime=        484.607
Iter=  32700 alpha=    2.05617e-05 beta=              1 lowLevelErr=     0.00191818 relDifference=        17.4518 relDifferenceCellwise=    0.000532587 elapsedTime=        486.196
Iter=  32800 alpha=    2.05147e-05 beta=              1 lowLevelErr=     0.00190312 relDifference=        17.4124 relDifferenceCellwise=    0.000531384 elapsedTime=        487.727
Iter=  32900 alpha=    2.04679e-05 beta=              1 lowLevelErr=     0.00188823 relDifference=        17.3264 relDifferenceCellwise=    0.000528759 elapsedTime=        489.262
Iter=  33000 alpha=    2.04214e-05 beta=              1 lowLevelErr=     0.00187349 relDifference=        17.2937 relDifferenceCellwise=    0.000527761 elapsedTime=        490.823
Iter=  33100 alpha=    2.03751e-05 beta=              1 lowLevelErr=     0.00185891 relDifference=        17.2512 relDifferenceCellwise=    0.000526463 elapsedTime=        492.462
Iter=  33200 alpha=     2.0329e-05 beta=              1 lowLevelErr=     0.00184453 relDifference=         17.218 relDifferenceCellwise=    0.000525453 elapsedTime=        494.019
Iter=  33300 alpha=    2.02832e-05 beta=              1 lowLevelErr=     0.00183031 relDifference=        17.1901 relDifferenceCellwise=      0.0005246 elapsedTime=         495.69
Iter=  33400 alpha=    2.02377e-05 beta=              1 lowLevelErr=     0.00181623 relDifference=        17.1435 relDifferenceCellwise=    0.000523178 elapsedTime=        497.324
Iter=  33500 alpha=    2.01923e-05 beta=              1 lowLevelErr=     0.00180231 relDifference=        17.1052 relDifferenceCellwise=     0.00052201 elapsedTime=        498.853
Iter=  33600 alpha=    2.01472e-05 beta=              1 lowLevelErr=     0.00178855 relDifference=        17.0679 relDifferenceCellwise=    0.000520871 elapsedTime=        500.387
Iter=  33700 alpha=    2.01024e-05 beta=              1 lowLevelErr=     0.00177499 relDifference=        17.0226 relDifferenceCellwise=    0.000519487 elapsedTime=        501.913
Iter=  33800 alpha=    2.00578e-05 beta=              1 lowLevelErr=     0.00176156 relDifference=        16.9931 relDifferenceCellwise=    0.000518588 elapsedTime=        503.467
Iter=  33900 alpha=    2.00134e-05 beta=              1 lowLevelErr=     0.00174824 relDifference=        16.9334 relDifferenceCellwise=    0.000516767 elapsedTime=        505.067
Iter=  34000 alpha=    1.99692e-05 beta=              1 lowLevelErr=     0.00173511 relDifference=        16.9107 relDifferenceCellwise=    0.000516073 elapsedTime=        506.641
Iter=  34100 alpha=    1.99253e-05 beta=              1 lowLevelErr=     0.00172213 relDifference=        16.8756 relDifferenceCellwise=    0.000515004 elapsedTime=        508.263
Iter=  34200 alpha=    1.98816e-05 beta=              1 lowLevelErr=      0.0017093 relDifference=        16.8389 relDifferenceCellwise=    0.000513881 elapsedTime=        509.986
Iter=  34300 alpha=    1.98381e-05 beta=              1 lowLevelErr=     0.00169658 relDifference=        16.7996 relDifferenceCellwise=    0.000512684 elapsedTime=        511.734
Iter=  34400 alpha=    1.97948e-05 beta=              1 lowLevelErr=     0.00168394 relDifference=        16.7773 relDifferenceCellwise=    0.000512004 elapsedTime=        513.519
Iter=  34500 alpha=    1.97518e-05 beta=              1 lowLevelErr=     0.00167143 relDifference=        16.7485 relDifferenceCellwise=    0.000511125 elapsedTime=        515.302
Iter=  34600 alpha=    1.97089e-05 beta=              1 lowLevelErr=     0.00165907 relDifference=        16.7097 relDifferenceCellwise=    0.000509939 elapsedTime=        517.088
Iter=  34700 alpha=    1.96663e-05 beta=              1 lowLevelErr=     0.00164683 relDifference=        16.6785 relDifferenceCellwise=    0.000508987 elapsedTime=          518.9
Iter=  34800 alpha=    1.96239e-05 beta=              1 lowLevelErr=     0.00163473 relDifference=        16.6401 relDifferenceCellwise=    0.000507815 elapsedTime=        520.838
Iter=  34900 alpha=    1.95817e-05 beta=              1 lowLevelErr=     0.00162276 relDifference=         16.582 relDifferenceCellwise=    0.000506043 elapsedTime=        522.729
Iter=  35000 alpha=    1.95397e-05 beta=              1 lowLevelErr=     0.00161085 relDifference=        16.5735 relDifferenceCellwise=    0.000505783 elapsedTime=        524.617
Iter=  35100 alpha=     1.9498e-05 beta=              1 lowLevelErr=     0.00159906 relDifference=        16.5393 relDifferenceCellwise=    0.000504738 elapsedTime=        526.517
Iter=  35200 alpha=    1.94564e-05 beta=              1 lowLevelErr=     0.00158737 relDifference=        16.5056 relDifferenceCellwise=     0.00050371 elapsedTime=        528.401
Iter=  35300 alpha=    1.94151e-05 beta=              1 lowLevelErr=     0.00157582 relDifference=        16.4827 relDifferenceCellwise=    0.000503011 elapsedTime=        530.273
Iter=  35400 alpha=    1.93739e-05 beta=              1 lowLevelErr=     0.00156438 relDifference=        16.4582 relDifferenceCellwise=    0.000502265 elapsedTime=        532.052
Iter=  35500 alpha=     1.9333e-05 beta=              1 lowLevelErr=     0.00155306 relDifference=        16.4245 relDifferenceCellwise=    0.000501235 elapsedTime=         533.66
Iter=  35600 alpha=    1.92922e-05 beta=              1 lowLevelErr=     0.00154185 relDifference=        16.3609 relDifferenceCellwise=    0.000499294 elapsedTime=        535.243
Iter=  35700 alpha=    1.92517e-05 beta=              1 lowLevelErr=     0.00153071 relDifference=        16.2853 relDifferenceCellwise=    0.000496987 elapsedTime=        536.825
Iter=  35800 alpha=    1.92113e-05 beta=              1 lowLevelErr=     0.00151965 relDifference=        16.2522 relDifferenceCellwise=    0.000495977 elapsedTime=        538.397
Iter=  35900 alpha=    1.91712e-05 beta=              1 lowLevelErr=     0.00150867 relDifference=        16.1942 relDifferenceCellwise=    0.000494207 elapsedTime=        539.957
Iter=  36000 alpha=    1.91312e-05 beta=              1 lowLevelErr=     0.00149781 relDifference=        16.1723 relDifferenceCellwise=    0.000493538 elapsedTime=        541.532
Iter=  36100 alpha=    1.90915e-05 beta=              1 lowLevelErr=     0.00148708 relDifference=        16.1636 relDifferenceCellwise=    0.000493274 elapsedTime=        543.119
Iter=  36200 alpha=    1.90519e-05 beta=              1 lowLevelErr=     0.00147644 relDifference=        16.1419 relDifferenceCellwise=    0.000492612 elapsedTime=        544.644
Iter=  36300 alpha=    1.90125e-05 beta=              1 lowLevelErr=     0.00146591 relDifference=        16.1281 relDifferenceCellwise=    0.000492192 elapsedTime=        546.161
Iter=  36400 alpha=    1.89733e-05 beta=              1 lowLevelErr=     0.00145545 relDifference=        16.0987 relDifferenceCellwise=    0.000491294 elapsedTime=        547.683
Iter=  36500 alpha=    1.89343e-05 beta=              1 lowLevelErr=     0.00144513 relDifference=        16.0771 relDifferenceCellwise=    0.000490636 elapsedTime=         549.19
Iter=  36600 alpha=    1.88955e-05 beta=              1 lowLevelErr=     0.00143488 relDifference=        16.0506 relDifferenceCellwise=    0.000489827 elapsedTime=        550.699
Iter=  36700 alpha=    1.88569e-05 beta=              1 lowLevelErr=     0.00142472 relDifference=             16 relDifferenceCellwise=     0.00048828 elapsedTime=        552.207
Iter=  36800 alpha=    1.88185e-05 beta=              1 lowLevelErr=     0.00141464 relDifference=        15.9823 relDifferenceCellwise=    0.000487742 elapsedTime=        553.838
Iter=  36900 alpha=    1.87802e-05 beta=              1 lowLevelErr=     0.00140468 relDifference=        15.9475 relDifferenceCellwise=     0.00048668 elapsedTime=         555.42
Iter=  37000 alpha=    1.87421e-05 beta=              1 lowLevelErr=     0.00139482 relDifference=        15.9389 relDifferenceCellwise=    0.000486416 elapsedTime=        557.006
Iter=  37100 alpha=    1.87042e-05 beta=              1 lowLevelErr=     0.00138502 relDifference=        15.8964 relDifferenceCellwise=    0.000485118 elapsedTime=        558.648
Iter=  37200 alpha=    1.86665e-05 beta=              1 lowLevelErr=     0.00137528 relDifference=        15.8715 relDifferenceCellwise=     0.00048436 elapsedTime=        560.495
Iter=  37300 alpha=     1.8629e-05 beta=              1 lowLevelErr=     0.00136564 relDifference=        15.8526 relDifferenceCellwise=    0.000483782 elapsedTime=        562.048
Iter=  37400 alpha=    1.85916e-05 beta=              1 lowLevelErr=     0.00135607 relDifference=         15.806 relDifferenceCellwise=    0.000482361 elapsedTime=        563.733
Iter=  37500 alpha=    1.85544e-05 beta=              1 lowLevelErr=     0.00134658 relDifference=         15.721 relDifferenceCellwise=    0.000479767 elapsedTime=        565.465
Iter=  37600 alpha=    1.85174e-05 beta=              1 lowLevelErr=     0.00133716 relDifference=         15.642 relDifferenceCellwise=    0.000477357 elapsedTime=         567.22
Iter=  37700 alpha=    1.84805e-05 beta=              1 lowLevelErr=     0.00132781 relDifference=        15.5752 relDifferenceCellwise=    0.000475317 elapsedTime=        568.983
Iter=  37800 alpha=    1.84438e-05 beta=              1 lowLevelErr=     0.00131852 relDifference=        15.5222 relDifferenceCellwise=      0.0004737 elapsedTime=        570.727
Iter=  37900 alpha=    1.84073e-05 beta=              1 lowLevelErr=      0.0013093 relDifference=        15.4727 relDifferenceCellwise=     0.00047219 elapsedTime=        572.528
Iter=  38000 alpha=     1.8371e-05 beta=              1 lowLevelErr=     0.00130018 relDifference=         15.446 relDifferenceCellwise=    0.000471375 elapsedTime=        574.276
Iter=  38100 alpha=    1.83348e-05 beta=              1 lowLevelErr=     0.00129112 relDifference=        15.4184 relDifferenceCellwise=    0.000470533 elapsedTime=        576.019
Iter=  38200 alpha=    1.82988e-05 beta=              1 lowLevelErr=     0.00128218 relDifference=        15.3854 relDifferenceCellwise=    0.000469524 elapsedTime=        577.761
Iter=  38300 alpha=    1.82629e-05 beta=              1 lowLevelErr=     0.00127325 relDifference=        15.3244 relDifferenceCellwise=    0.000467662 elapsedTime=         579.51
Iter=  38400 alpha=    1.82273e-05 beta=              1 lowLevelErr=     0.00126441 relDifference=        15.2936 relDifferenceCellwise=    0.000466725 elapsedTime=        581.267
Iter=  38500 alpha=    1.81917e-05 beta=              1 lowLevelErr=     0.00125566 relDifference=        15.2443 relDifferenceCellwise=    0.000465218 elapsedTime=        583.005
Iter=  38600 alpha=    1.81564e-05 beta=              1 lowLevelErr=     0.00124696 relDifference=        15.2136 relDifferenceCellwise=    0.000464283 elapsedTime=        584.756
Iter=  38700 alpha=    1.81212e-05 beta=              1 lowLevelErr=     0.00123832 relDifference=        15.1674 relDifferenceCellwise=    0.000462873 elapsedTime=        586.281
Iter=  38800 alpha=    1.80862e-05 beta=              1 lowLevelErr=      0.0012297 relDifference=        15.1017 relDifferenceCellwise=    0.000460867 elapsedTime=        587.777
Iter=  38900 alpha=    1.80513e-05 beta=              1 lowLevelErr=     0.00122109 relDifference=        14.9736 relDifferenceCellwise=    0.000456957 elapsedTime=        589.252
Iter=  39000 alpha=    1.80165e-05 beta=              1 lowLevelErr=     0.00121252 relDifference=        14.8659 relDifferenceCellwise=     0.00045367 elapsedTime=        590.733
Iter=  39100 alpha=     1.7982e-05 beta=              1 lowLevelErr=     0.00120405 relDifference=         14.861 relDifferenceCellwise=    0.000453523 elapsedTime=        592.213
Iter=  39200 alpha=    1.79476e-05 beta=              1 lowLevelErr=     0.00119569 relDifference=         14.857 relDifferenceCellwise=    0.000453399 elapsedTime=        593.694
Iter=  39300 alpha=    1.79133e-05 beta=              1 lowLevelErr=     0.00118743 relDifference=        14.8346 relDifferenceCellwise=    0.000452717 elapsedTime=        595.184
Iter=  39400 alpha=    1.78792e-05 beta=              1 lowLevelErr=     0.00117929 relDifference=        14.8064 relDifferenceCellwise=    0.000451855 elapsedTime=         596.66
Iter=  39500 alpha=    1.78452e-05 beta=              1 lowLevelErr=     0.00117122 relDifference=        14.8062 relDifferenceCellwise=    0.000451851 elapsedTime=        598.151
Iter=  39600 alpha=    1.78114e-05 beta=              1 lowLevelErr=     0.00116326 relDifference=         14.803 relDifferenceCellwise=    0.000451753 elapsedTime=        599.739
Iter=  39700 alpha=    1.77778e-05 beta=              1 lowLevelErr=     0.00115538 relDifference=        14.7413 relDifferenceCellwise=    0.000449869 elapsedTime=         601.35
Iter=  39800 alpha=    1.77443e-05 beta=              1 lowLevelErr=     0.00114753 relDifference=        14.7371 relDifferenceCellwise=    0.000449742 elapsedTime=        602.971
Iter=  39900 alpha=    1.77109e-05 beta=              1 lowLevelErr=     0.00113977 relDifference=         14.738 relDifferenceCellwise=    0.000449769 elapsedTime=        604.507
Iter=  40000 alpha=    1.76777e-05 beta=              1 lowLevelErr=     0.00113208 relDifference=        14.7165 relDifferenceCellwise=    0.000449113 elapsedTime=        606.095
Iter=  40100 alpha=    1.76446e-05 beta=              1 lowLevelErr=     0.00112447 relDifference=        14.7117 relDifferenceCellwise=    0.000448966 elapsedTime=        607.805
Iter=  40200 alpha=    1.76117e-05 beta=              1 lowLevelErr=     0.00111694 relDifference=        14.7045 relDifferenceCellwise=    0.000448746 elapsedTime=        609.481
Iter=  40300 alpha=    1.75789e-05 beta=              1 lowLevelErr=     0.00110949 relDifference=        14.7034 relDifferenceCellwise=    0.000448713 elapsedTime=        611.095
Iter=  40400 alpha=    1.75462e-05 beta=              1 lowLevelErr=     0.00110211 relDifference=        14.7019 relDifferenceCellwise=    0.000448666 elapsedTime=        612.597
Iter=  40500 alpha=    1.75137e-05 beta=              1 lowLevelErr=      0.0010948 relDifference=        14.7029 relDifferenceCellwise=    0.000448696 elapsedTime=        614.152
Iter=  40600 alpha=    1.74814e-05 beta=              1 lowLevelErr=     0.00108754 relDifference=        14.6972 relDifferenceCellwise=    0.000448523 elapsedTime=        615.651
Iter=  40700 alpha=    1.74491e-05 beta=              1 lowLevelErr=     0.00108034 relDifference=         14.685 relDifferenceCellwise=    0.000448149 elapsedTime=        617.148
Iter=  40800 alpha=    1.74171e-05 beta=              1 lowLevelErr=     0.00107318 relDifference=        14.6681 relDifferenceCellwise=    0.000447635 elapsedTime=        618.639
Iter=  40900 alpha=    1.73851e-05 beta=              1 lowLevelErr=     0.00106604 relDifference=        14.6188 relDifferenceCellwise=    0.000446131 elapsedTime=        620.125
Iter=  41000 alpha=    1.73533e-05 beta=              1 lowLevelErr=     0.00105895 relDifference=         14.615 relDifferenceCellwise=    0.000446015 elapsedTime=         621.75
Iter=  41100 alpha=    1.73216e-05 beta=              1 lowLevelErr=     0.00105193 relDifference=        14.6139 relDifferenceCellwise=    0.000445981 elapsedTime=        623.375
Iter=  41200 alpha=    1.72901e-05 beta=              1 lowLevelErr=       0.001045 relDifference=        14.6148 relDifferenceCellwise=    0.000446009 elapsedTime=        624.974
Iter=  41300 alpha=    1.72587e-05 beta=              1 lowLevelErr=     0.00103812 relDifference=        14.5927 relDifferenceCellwise=    0.000445333 elapsedTime=        626.676
Iter=  41400 alpha=    1.72274e-05 beta=              1 lowLevelErr=     0.00103128 relDifference=        14.5797 relDifferenceCellwise=    0.000444936 elapsedTime=        628.216
Iter=  41500 alpha=    1.71963e-05 beta=              1 lowLevelErr=      0.0010245 relDifference=         14.572 relDifferenceCellwise=    0.000444703 elapsedTime=        629.753
Iter=  41600 alpha=    1.71652e-05 beta=              1 lowLevelErr=      0.0010178 relDifference=        14.5733 relDifferenceCellwise=    0.000444741 elapsedTime=        631.254
Iter=  41700 alpha=    1.71344e-05 beta=              1 lowLevelErr=     0.00101113 relDifference=        14.5318 relDifferenceCellwise=    0.000443477 elapsedTime=        632.743
Iter=  41800 alpha=    1.71036e-05 beta=              1 lowLevelErr=     0.00100451 relDifference=         14.516 relDifferenceCellwise=    0.000442992 elapsedTime=        634.239
Iter=  41900 alpha=     1.7073e-05 beta=              1 lowLevelErr=    0.000997952 relDifference=        14.5101 relDifferenceCellwise=    0.000442813 elapsedTime=        635.731
Iter=  42000 alpha=    1.70425e-05 beta=              1 lowLevelErr=    0.000991449 relDifference=        14.5085 relDifferenceCellwise=    0.000442763 elapsedTime=        637.222
Iter=  42100 alpha=    1.70121e-05 beta=              1 lowLevelErr=    0.000984987 relDifference=        14.5011 relDifferenceCellwise=    0.000442537 elapsedTime=        638.715
Iter=  42200 alpha=    1.69819e-05 beta=              1 lowLevelErr=    0.000978609 relDifference=        14.5024 relDifferenceCellwise=    0.000442578 elapsedTime=         640.21
Iter=  42300 alpha=    1.69518e-05 beta=              1 lowLevelErr=    0.000972271 relDifference=        14.4812 relDifferenceCellwise=    0.000441932 elapsedTime=         641.71
Iter=  42400 alpha=    1.69218e-05 beta=              1 lowLevelErr=    0.000965999 relDifference=        14.4633 relDifferenceCellwise=    0.000441384 elapsedTime=        643.202
Iter=  42500 alpha=    1.68919e-05 beta=              1 lowLevelErr=    0.000959749 relDifference=        14.4487 relDifferenceCellwise=    0.000440941 elapsedTime=        644.691
Iter=  42600 alpha=    1.68621e-05 beta=              1 lowLevelErr=    0.000953575 relDifference=        14.4396 relDifferenceCellwise=    0.000440661 elapsedTime=        646.175
Iter=  42700 alpha=    1.68325e-05 beta=              1 lowLevelErr=    0.000947451 relDifference=        14.4348 relDifferenceCellwise=    0.000440514 elapsedTime=        647.677
Iter=  42800 alpha=     1.6803e-05 beta=              1 lowLevelErr=    0.000941312 relDifference=        14.3941 relDifferenceCellwise=    0.000439273 elapsedTime=        649.169
Iter=  42900 alpha=    1.67736e-05 beta=              1 lowLevelErr=    0.000935228 relDifference=        14.3889 relDifferenceCellwise=    0.000439116 elapsedTime=        650.653
Iter=  43000 alpha=    1.67444e-05 beta=              1 lowLevelErr=    0.000929191 relDifference=        14.3798 relDifferenceCellwise=    0.000438836 elapsedTime=        652.141
Iter=  43100 alpha=    1.67152e-05 beta=              1 lowLevelErr=    0.000923186 relDifference=        14.3631 relDifferenceCellwise=    0.000438326 elapsedTime=        653.637
Iter=  43200 alpha=    1.66862e-05 beta=              1 lowLevelErr=    0.000917188 relDifference=        14.3356 relDifferenceCellwise=    0.000437487 elapsedTime=        655.127
Iter=  43300 alpha=    1.66573e-05 beta=              1 lowLevelErr=    0.000911251 relDifference=         14.329 relDifferenceCellwise=    0.000437286 elapsedTime=        656.618
Iter=  43400 alpha=    1.66285e-05 beta=              1 lowLevelErr=    0.000905362 relDifference=        14.3247 relDifferenceCellwise=    0.000437155 elapsedTime=        658.114
Iter=  43500 alpha=    1.65998e-05 beta=              1 lowLevelErr=    0.000899526 relDifference=        14.3262 relDifferenceCellwise=    0.000437202 elapsedTime=        659.622
Iter=  43600 alpha=    1.65712e-05 beta=              1 lowLevelErr=    0.000893748 relDifference=        14.3251 relDifferenceCellwise=    0.000437167 elapsedTime=        661.214
Iter=  43700 alpha=    1.65428e-05 beta=              1 lowLevelErr=    0.000888004 relDifference=        14.3006 relDifferenceCellwise=    0.000436419 elapsedTime=        662.714
Iter=  43800 alpha=    1.65145e-05 beta=              1 lowLevelErr=    0.000882304 relDifference=         14.293 relDifferenceCellwise=    0.000436189 elapsedTime=        664.226
Iter=  43900 alpha=    1.64862e-05 beta=              1 lowLevelErr=    0.000876662 relDifference=        14.2893 relDifferenceCellwise=    0.000436074 elapsedTime=        665.734
Iter=  44000 alpha=    1.64581e-05 beta=              1 lowLevelErr=    0.000871064 relDifference=        14.2893 relDifferenceCellwise=    0.000436076 elapsedTime=        667.232
Iter=  44100 alpha=    1.64301e-05 beta=              1 lowLevelErr=    0.000865507 relDifference=        14.2702 relDifferenceCellwise=    0.000435493 elapsedTime=        668.778
Iter=  44200 alpha=    1.64022e-05 beta=              1 lowLevelErr=    0.000859975 relDifference=         14.261 relDifferenceCellwise=     0.00043521 elapsedTime=        670.371
Iter=  44300 alpha=    1.63745e-05 beta=              1 lowLevelErr=    0.000854473 relDifference=         14.256 relDifferenceCellwise=    0.000435059 elapsedTime=        672.036
Iter=  44400 alpha=    1.63468e-05 beta=              1 lowLevelErr=    0.000849039 relDifference=        14.2495 relDifferenceCellwise=    0.000434861 elapsedTime=        673.635
Iter=  44500 alpha=    1.63192e-05 beta=              1 lowLevelErr=    0.000843647 relDifference=        14.2454 relDifferenceCellwise=    0.000434735 elapsedTime=        675.346
Iter=  44600 alpha=    1.62918e-05 beta=              1 lowLevelErr=    0.000838308 relDifference=        14.2445 relDifferenceCellwise=    0.000434708 elapsedTime=        676.978
Iter=  44700 alpha=    1.62644e-05 beta=              1 lowLevelErr=    0.000833008 relDifference=        14.2365 relDifferenceCellwise=    0.000434464 elapsedTime=        678.778
Iter=  44800 alpha=    1.62372e-05 beta=              1 lowLevelErr=    0.000827743 relDifference=        14.2378 relDifferenceCellwise=    0.000434503 elapsedTime=        680.575
Iter=  44900 alpha=    1.62101e-05 beta=              1 lowLevelErr=    0.000822516 relDifference=        14.2359 relDifferenceCellwise=    0.000434444 elapsedTime=        682.381
Iter=  45000 alpha=    1.61831e-05 beta=              1 lowLevelErr=    0.000817333 relDifference=        14.2298 relDifferenceCellwise=    0.000434258 elapsedTime=        684.156
Iter=  45100 alpha=    1.61561e-05 beta=              1 lowLevelErr=    0.000812193 relDifference=        14.2193 relDifferenceCellwise=    0.000433938 elapsedTime=        685.963
Iter=  45200 alpha=    1.61293e-05 beta=              1 lowLevelErr=    0.000807076 relDifference=        14.2094 relDifferenceCellwise=    0.000433638 elapsedTime=        687.766
Iter=  45300 alpha=    1.61026e-05 beta=              1 lowLevelErr=    0.000801992 relDifference=        14.1849 relDifferenceCellwise=     0.00043289 elapsedTime=        689.639
Iter=  45400 alpha=     1.6076e-05 beta=              1 lowLevelErr=      0.0007969 relDifference=        14.1432 relDifferenceCellwise=    0.000431617 elapsedTime=         691.55
Iter=  45500 alpha=    1.60495e-05 beta=              1 lowLevelErr=    0.000791832 relDifference=        14.1328 relDifferenceCellwise=    0.000431299 elapsedTime=        693.468
Iter=  45600 alpha=    1.60231e-05 beta=              1 lowLevelErr=    0.000786806 relDifference=        14.1344 relDifferenceCellwise=    0.000431348 elapsedTime=        695.404
Iter=  45700 alpha=    1.59968e-05 beta=              1 lowLevelErr=    0.000781802 relDifference=        14.1278 relDifferenceCellwise=    0.000431146 elapsedTime=        697.234
Iter=  45800 alpha=    1.59706e-05 beta=              1 lowLevelErr=    0.000776847 relDifference=        14.1182 relDifferenceCellwise=    0.000430852 elapsedTime=         698.91
Iter=  45900 alpha=    1.59445e-05 beta=              1 lowLevelErr=    0.000771969 relDifference=        14.1028 relDifferenceCellwise=    0.000430384 elapsedTime=        700.456
Iter=  46000 alpha=    1.59185e-05 beta=              1 lowLevelErr=    0.000767111 relDifference=        14.1009 relDifferenceCellwise=    0.000430327 elapsedTime=        702.002
Iter=  46100 alpha=    1.58926e-05 beta=              1 lowLevelErr=    0.000762269 relDifference=        14.0575 relDifferenceCellwise=    0.000429002 elapsedTime=        703.542
Iter=  46200 alpha=    1.58668e-05 beta=              1 lowLevelErr=    0.000757468 relDifference=        14.0355 relDifferenceCellwise=    0.000428328 elapsedTime=        705.103
Iter=  46300 alpha=    1.58411e-05 beta=              1 lowLevelErr=    0.000752689 relDifference=        14.0321 relDifferenceCellwise=    0.000428226 elapsedTime=        706.653
Iter=  46400 alpha=    1.58154e-05 beta=              1 lowLevelErr=    0.000747946 relDifference=        14.0169 relDifferenceCellwise=    0.000427763 elapsedTime=        708.188
Iter=  46500 alpha=    1.57899e-05 beta=              1 lowLevelErr=    0.000743223 relDifference=        13.9967 relDifferenceCellwise=    0.000427144 elapsedTime=        709.739
Iter=  46600 alpha=    1.57645e-05 beta=              1 lowLevelErr=    0.000738566 relDifference=        13.9983 relDifferenceCellwise=    0.000427195 elapsedTime=        711.296
Iter=  46700 alpha=    1.57392e-05 beta=              1 lowLevelErr=    0.000733946 relDifference=        13.9871 relDifferenceCellwise=    0.000426853 elapsedTime=        712.969
Iter=  46800 alpha=     1.5714e-05 beta=              1 lowLevelErr=    0.000729362 relDifference=        13.9873 relDifferenceCellwise=    0.000426858 elapsedTime=        714.661
Iter=  46900 alpha=    1.56888e-05 beta=              1 lowLevelErr=    0.000724795 relDifference=        13.9837 relDifferenceCellwise=    0.000426748 elapsedTime=        716.277
Iter=  47000 alpha=    1.56638e-05 beta=              1 lowLevelErr=    0.000720271 relDifference=        13.9805 relDifferenceCellwise=    0.000426651 elapsedTime=        717.825
Iter=  47100 alpha=    1.56388e-05 beta=              1 lowLevelErr=    0.000715768 relDifference=        13.9574 relDifferenceCellwise=    0.000425945 elapsedTime=        719.352
Iter=  47200 alpha=     1.5614e-05 beta=              1 lowLevelErr=    0.000711341 relDifference=        13.9405 relDifferenceCellwise=    0.000425429 elapsedTime=        721.013
Iter=  47300 alpha=    1.55892e-05 beta=              1 lowLevelErr=    0.000706937 relDifference=        13.9377 relDifferenceCellwise=    0.000425345 elapsedTime=        722.552
Iter=  47400 alpha=    1.55645e-05 beta=              1 lowLevelErr=    0.000702548 relDifference=        13.9385 relDifferenceCellwise=     0.00042537 elapsedTime=        724.161
Iter=  47500 alpha=      1.554e-05 beta=              1 lowLevelErr=    0.000698226 relDifference=        13.9384 relDifferenceCellwise=    0.000425366 elapsedTime=        725.708
Iter=  47600 alpha=    1.55155e-05 beta=              1 lowLevelErr=    0.000693949 relDifference=        13.9383 relDifferenceCellwise=    0.000425362 elapsedTime=        727.313
Iter=  47700 alpha=    1.54911e-05 beta=              1 lowLevelErr=    0.000689673 relDifference=        13.9367 relDifferenceCellwise=    0.000425316 elapsedTime=        729.001
Iter=  47800 alpha=    1.54668e-05 beta=              1 lowLevelErr=    0.000685447 relDifference=        13.9345 relDifferenceCellwise=    0.000425248 elapsedTime=        730.658
Iter=  47900 alpha=    1.54425e-05 beta=              1 lowLevelErr=    0.000681264 relDifference=        13.9294 relDifferenceCellwise=    0.000425092 elapsedTime=        732.203
Iter=  48000 alpha=    1.54184e-05 beta=              1 lowLevelErr=    0.000677093 relDifference=        13.9257 relDifferenceCellwise=    0.000424978 elapsedTime=        733.808
Iter=  48100 alpha=    1.53943e-05 beta=              1 lowLevelErr=    0.000672892 relDifference=        13.8948 relDifferenceCellwise=    0.000424036 elapsedTime=        735.454
Iter=  48200 alpha=    1.53704e-05 beta=              1 lowLevelErr=    0.000668747 relDifference=        13.8948 relDifferenceCellwise=    0.000424036 elapsedTime=        737.004
Iter=  48300 alpha=    1.53465e-05 beta=              1 lowLevelErr=    0.000664622 relDifference=        13.8873 relDifferenceCellwise=    0.000423807 elapsedTime=        738.594
Iter=  48400 alpha=    1.53227e-05 beta=              1 lowLevelErr=    0.000660511 relDifference=        13.8782 relDifferenceCellwise=    0.000423529 elapsedTime=        740.267
Iter=  48500 alpha=     1.5299e-05 beta=              1 lowLevelErr=    0.000656448 relDifference=        13.8767 relDifferenceCellwise=    0.000423484 elapsedTime=        741.854
Iter=  48600 alpha=    1.52754e-05 beta=              1 lowLevelErr=    0.000652419 relDifference=        13.8697 relDifferenceCellwise=    0.000423271 elapsedTime=        743.408
Iter=  48700 alpha=    1.52519e-05 beta=              1 lowLevelErr=    0.000648409 relDifference=        13.8635 relDifferenceCellwise=     0.00042308 elapsedTime=        744.948
Iter=  48800 alpha=    1.52284e-05 beta=              1 lowLevelErr=    0.000644444 relDifference=         13.865 relDifferenceCellwise=    0.000423127 elapsedTime=        746.492
Iter=  48900 alpha=    1.52051e-05 beta=              1 lowLevelErr=    0.000640509 relDifference=        13.8603 relDifferenceCellwise=    0.000422984 elapsedTime=        748.114
Iter=  49000 alpha=    1.51818e-05 beta=              1 lowLevelErr=    0.000636592 relDifference=        13.8559 relDifferenceCellwise=     0.00042285 elapsedTime=        749.811
Iter=  49100 alpha=    1.51586e-05 beta=              1 lowLevelErr=    0.000632709 relDifference=        13.8554 relDifferenceCellwise=    0.000422835 elapsedTime=        751.442
Iter=  49200 alpha=    1.51355e-05 beta=              1 lowLevelErr=    0.000628849 relDifference=        13.8501 relDifferenceCellwise=    0.000422672 elapsedTime=         753.05
Iter=  49300 alpha=    1.51124e-05 beta=              1 lowLevelErr=    0.000625024 relDifference=        13.8367 relDifferenceCellwise=    0.000422263 elapsedTime=        754.643
Iter=  49400 alpha=    1.50895e-05 beta=              1 lowLevelErr=    0.000621222 relDifference=        13.8347 relDifferenceCellwise=    0.000422202 elapsedTime=        756.215
Iter=  49500 alpha=    1.50666e-05 beta=              1 lowLevelErr=    0.000617446 relDifference=        13.8332 relDifferenceCellwise=    0.000422155 elapsedTime=        757.779
Iter=  49600 alpha=    1.50438e-05 beta=              1 lowLevelErr=    0.000613705 relDifference=         13.831 relDifferenceCellwise=    0.000422089 elapsedTime=        759.316
Iter=  49700 alpha=    1.50211e-05 beta=              1 lowLevelErr=    0.000609984 relDifference=        13.8252 relDifferenceCellwise=    0.000421911 elapsedTime=         760.85
Iter=  49800 alpha=    1.49985e-05 beta=              1 lowLevelErr=    0.000606281 relDifference=        13.8153 relDifferenceCellwise=    0.000421611 elapsedTime=        762.457
Iter=  49900 alpha=     1.4976e-05 beta=              1 lowLevelErr=    0.000602617 relDifference=        13.8145 relDifferenceCellwise=    0.000421585 elapsedTime=        764.071
Iter=  50000 alpha=    1.49535e-05 beta=              1 lowLevelErr=    0.000598974 relDifference=        13.8126 relDifferenceCellwise=    0.000421528 elapsedTime=         765.83
