
=======================================
           Academic License
       (NOT FOR COMMERCIAL USE)
         Artelys Knitro 12.2.2
=======================================

Knitro presolve eliminated 0 variables and 0 constraints.

algorithm:               2
bar_feasible:            3
cg_maxit:               50
hessopt:                 2
Knitro changing bar_initpt from AUTO to 3.
Knitro changing bar_murule from AUTO to 1.
Knitro changing bar_penaltycons from AUTO to 2.
Knitro changing bar_penaltyrule from AUTO to 2.
Knitro changing bar_switchrule from AUTO to 0.
Knitro changing linesearch from AUTO to 1.
Knitro changing linsolver from AUTO to 4.

Problem Characteristics                                 (   Presolved)
-----------------------
Objective goal:  Minimize
Objective type:  general
Number of variables:                               8192 (        8192)
    bounded below only:                               0 (           0)
    bounded above only:                               0 (           0)
    bounded below and above:                       8192 (        8192)
    fixed:                                            0 (           0)
    free:                                             0 (           0)
Number of constraints:                                1 (           1)
    linear equalities:                                0 (           0)
    quadratic equalities:                             0 (           0)
    gen. nonlinear equalities:                        0 (           0)
    linear one-sided inequalities:                    1 (           1)
    quadratic one-sided inequalities:                 0 (           0)
    gen. nonlinear one-sided inequalities:            0 (           0)
    linear two-sided inequalities:                    0 (           0)
    quadratic two-sided inequalities:                 0 (           0)
    gen. nonlinear two-sided inequalities:            0 (           0)
Number of nonzeros in Jacobian:                    8192 (        8192)
Number of nonzeros in Hessian:                        0 (    33558528)

  Iter      Objective      FeasError   OptError    ||Step||    CGits 
--------  --------------  ----------  ----------  ----------  -------
       0    4.512492e+03   2.956e-11
Starting feasible mode...
      10    9.483866e+02   0.000e+00   3.132e-01   3.870e+00       35
      20    6.302427e+02   0.000e+00   2.960e-01   1.266e+00       36
      30    5.971002e+02   0.000e+00   5.057e-02   6.543e-01       50
      40    5.934855e+02   0.000e+00   3.174e-02   6.429e-01       50
      50    5.926153e+02   0.000e+00   3.810e-02   1.600e-01       50
      60    5.920745e+02   0.000e+00   2.592e-02   5.671e-01       50
      70    5.916362e+02   0.000e+00   1.845e-02   5.320e-01       50
      80    5.912823e+02   0.000e+00   3.218e-02   6.341e-01       50
      90    5.908785e+02   0.000e+00   3.242e-02   6.726e-01       50
     100    5.905502e+02   0.000e+00   3.507e-02   4.567e-01       50
     110    5.901974e+02   0.000e+00   2.689e-02   4.369e-01       50
     120    5.898801e+02   0.000e+00   2.203e-02   2.290e-01       50
     130    5.896270e+02   0.000e+00   2.597e-02   3.099e-01       50
     140    5.893700e+02   0.000e+00   2.672e-02   4.960e-01       50
     150    5.890328e+02   0.000e+00   2.546e-02   5.088e-01       50
     160    5.887252e+02   0.000e+00   2.807e-02   2.424e-01       50
     170    5.884590e+02   0.000e+00   2.986e-02   1.793e-01       50
     180    5.882478e+02   0.000e+00   1.661e-02   4.532e-01       50
     190    5.880019e+02   0.000e+00   1.746e-02   2.554e-01       50
     200    5.878014e+02   0.000e+00   1.790e-02   3.913e-01       50
     210    5.875650e+02   0.000e+00   1.831e-02   3.817e-01       50
     220    5.874085e+02   0.000e+00   3.239e-02   5.495e-01       50
     230    5.872630e+02   0.000e+00   2.134e-02   1.887e-01       50
     240    5.871467e+02   0.000e+00   1.592e-02   2.510e-01       50
     250    5.870467e+02   0.000e+00   1.998e-02   1.571e-01       50
     260    5.869645e+02   0.000e+00   1.375e-02   1.266e-01       50
     270    5.869312e+02   0.000e+00   1.709e-02   2.374e-01       50
     280    5.868522e+02   0.000e+00   2.973e-02   3.151e-01       50
     290    5.867617e+02   0.000e+00   2.019e-02   1.850e-01       50
     300    5.867012e+02   0.000e+00   1.623e-02   8.108e-02       50
     310    5.866456e+02   0.000e+00   1.688e-02   3.163e-01       50
     320    5.865578e+02   0.000e+00   2.401e-02   4.829e-01       50
     330    5.864344e+02   0.000e+00   2.018e-02   4.224e-01       50
     340    5.863753e+02   0.000e+00   2.107e-02   2.098e-01       50
     350    5.862908e+02   0.000e+00   1.836e-02   2.521e-01       50
     360    5.862472e+02   0.000e+00   2.250e-02   8.647e-02       50
     370    5.861559e+02   0.000e+00   2.319e-02   3.120e-01       50
     380    5.860465e+02   0.000e+00   1.661e-02   9.236e-02       50
     390    5.859994e+02   0.000e+00   2.086e-02   1.662e-01       50
     400    5.859610e+02   0.000e+00   1.093e-02   1.430e-01       50
     410    5.859280e+02   0.000e+00   1.147e-02   1.090e-01       50
     420    5.859133e+02   0.000e+00   1.126e-02   6.347e-02       50
     430    5.858661e+02   0.000e+00   1.734e-02   4.102e-01       50
     440    5.858225e+02   0.000e+00   1.446e-02   1.151e-01       50
     450    5.857905e+02   0.000e+00   1.618e-02   1.373e-01       50
     460    5.857341e+02   0.000e+00   1.701e-02   2.922e-01       50
     470    5.856909e+02   0.000e+00   2.609e-02   1.053e-01       50
     480    5.855987e+02   0.000e+00   1.696e-02   2.188e-01       50
     490    5.855390e+02   0.000e+00   2.272e-02   3.180e-01       50
     500    5.855065e+02   0.000e+00   1.773e-02   1.024e-01       50
     510    5.854836e+02   0.000e+00   1.134e-02   9.684e-02       50
     520    5.854544e+02   0.000e+00   1.286e-02   8.406e-02       50
     530    5.854053e+02   0.000e+00   1.422e-02   2.794e-01       50
     540    5.853816e+02   0.000e+00   1.157e-02   7.781e-02       50
     550    5.853505e+02   0.000e+00   1.535e-02   4.148e-01       50
     560    5.853297e+02   0.000e+00   1.188e-02   9.702e-02       50
     570    5.853157e+02   0.000e+00   8.825e-03   1.294e-01       50
     580    5.853054e+02   0.000e+00   7.838e-03   1.119e-01       50
     590    5.852952e+02   0.000e+00   1.179e-02   8.441e-02       50
     600    5.852803e+02   0.000e+00   1.007e-02   9.942e-02       50
     610    5.852717e+02   0.000e+00   5.639e-03   5.449e-02       50
     620    5.852685e+02   0.000e+00   4.578e-03   7.262e-02       50
     630    5.852653e+02   0.000e+00   3.790e-03   5.950e-02       50
     640    5.852524e+02   0.000e+00   1.883e-03   4.177e-02       50
     650    5.852519e+02   0.000e+00   2.180e-03   2.391e-02       50
     660    5.852344e+02   0.000e+00   7.774e-03   3.991e-01       50
     670    5.852140e+02   0.000e+00   7.804e-03   6.553e-02       50
     680    5.852105e+02   0.000e+00   8.184e-03   3.910e-02       50
     690    5.852065e+02   0.000e+00   7.459e-03   1.035e-01       50
     700    5.852039e+02   0.000e+00   7.972e-03   5.038e-02       50
     710    5.851982e+02   0.000e+00   1.291e-02   8.329e-02       50
     720    5.851865e+02   0.000e+00   1.404e-02   1.349e-01       50
     730    5.851742e+02   0.000e+00   1.426e-02   6.637e-02       50
     740    5.851638e+02   0.000e+00   8.404e-03   1.115e-01       50
     750    5.851619e+02   0.000e+00   7.721e-03   2.035e-02       50
     760    5.851594e+02   0.000e+00   6.688e-03   4.244e-02       50
     770    5.851588e+02   0.000e+00   6.894e-03   1.432e-02       50
     780    5.851579e+02   0.000e+00   7.042e-03   1.778e-02       50
     790    5.851527e+02   0.000e+00   1.112e-02   4.798e-02       50
     800    5.851384e+02   0.000e+00   1.110e-02   2.138e-01       50
     810    5.851251e+02   0.000e+00   1.728e-02   7.272e-02       50
     820    5.850990e+02   0.000e+00   1.600e-02   2.008e-01       50
     830    5.850900e+02   0.000e+00   1.865e-02   8.926e-02       50
     840    5.850746e+02   0.000e+00   1.685e-02   1.179e-01       50
     850    5.850698e+02   0.000e+00   1.647e-02   6.612e-02       50
     860    5.850625e+02   0.000e+00   1.664e-02   2.761e-02       50
     870    5.850537e+02   0.000e+00   1.705e-02   1.603e-01       50
     880    5.850362e+02   0.000e+00   1.672e-02   1.351e-01       50
     890    5.850260e+02   0.000e+00   1.492e-02   1.574e-01       50
     900    5.850224e+02   0.000e+00   1.462e-02   5.528e-02       50
     910    5.850095e+02   0.000e+00   1.660e-02   3.361e-01       50
     920    5.849887e+02   0.000e+00   1.683e-02   3.222e-02       50
     930    5.849582e+02   0.000e+00   1.171e-02   1.382e-01       50
     940    5.849513e+02   0.000e+00   1.123e-02   7.690e-02       50
     950    5.849422e+02   0.000e+00   1.236e-02   5.179e-02       50
     960    5.849383e+02   0.000e+00   1.280e-02   1.487e-01       50
     970    5.849131e+02   0.000e+00   1.207e-02   1.398e-01       50
     980    5.848931e+02   0.000e+00   1.128e-02   1.897e-01       50
     990    5.848875e+02   0.000e+00   1.206e-02   3.060e-02       50
    1000    5.848851e+02   0.000e+00   1.122e-02   1.451e-01       50
    1010    5.848810e+02   0.000e+00   1.211e-02   5.701e-02       50
    1020    5.848761e+02   0.000e+00   9.411e-03   7.602e-02       50
    1030    5.848744e+02   0.000e+00   9.039e-03   2.943e-02       50
    1040    5.848714e+02   0.000e+00   7.598e-03   4.763e-02       50
    1050    5.848691e+02   0.000e+00   9.257e-03   3.475e-02       50
    1060    5.848673e+02   0.000e+00   1.037e-02   3.611e-02       50
    1070    5.848622e+02   0.000e+00   5.904e-03   5.155e-02       50
    1080    5.848615e+02   0.000e+00   6.123e-03   2.483e-02       50
    1090    5.848601e+02   0.000e+00   5.895e-03   1.963e-02       50
    1100    5.848589e+02   0.000e+00   7.631e-03   5.261e-02       50
    1110    5.848566e+02   0.000e+00   6.787e-03   6.584e-02       50
    1120    5.848553e+02   0.000e+00   5.590e-03   3.560e-02       50
    1130    5.848520e+02   0.000e+00   8.650e-03   1.206e-01       50
    1140    5.848477e+02   0.000e+00   7.183e-03   5.468e-02       50
    1150    5.848452e+02   0.000e+00   8.339e-03   2.908e-02       50
    1160    5.848374e+02   0.000e+00   8.557e-03   2.031e-01       50
    1170    5.848341e+02   0.000e+00   9.142e-03   6.221e-02       50
    1180    5.848335e+02   0.000e+00   1.148e-02   2.776e-02       50
    1190    5.848280e+02   0.000e+00   9.469e-03   1.819e-01       50
    1200    5.848240e+02   0.000e+00   1.592e-02   1.427e-01       50
    1210    5.848181e+02   0.000e+00   1.441e-02   1.889e-01       50
    1220    5.848082e+02   0.000e+00   2.018e-02   7.870e-02       50
    1230    5.847774e+02   0.000e+00   1.642e-02   2.342e-01       50
    1240    5.847732e+02   0.000e+00   1.657e-02   3.057e-02       50
    1250    5.847679e+02   0.000e+00   1.860e-02   2.563e-02       50
    1260    5.847533e+02   0.000e+00   1.888e-02   1.024e-01       50
    1270    5.847364e+02   0.000e+00   1.316e-02   1.581e-01       50
    1280    5.847238e+02   0.000e+00   1.213e-02   3.371e-02       50
    1290    5.847195e+02   0.000e+00   1.434e-02   4.842e-02       50
    1300    5.847190e+02   0.000e+00   1.407e-02   4.768e-02       50
    1310    5.847147e+02   0.000e+00   1.164e-02   5.299e-02       50
    1320    5.847107e+02   0.000e+00   1.115e-02   2.052e-02       50
    1330    5.847095e+02   0.000e+00   1.130e-02   1.080e-01       50
    1340    5.847063e+02   0.000e+00   5.401e-03   1.658e-02       50
    1350    5.847060e+02   0.000e+00   5.657e-03   3.539e-02       50
    1360    5.847026e+02   0.000e+00   6.991e-03   2.030e-02       50
    1370    5.847004e+02   0.000e+00   1.028e-02   4.981e-02       50
    1380    5.846956e+02   0.000e+00   8.979e-03   5.621e-02       50
    1390    5.846953e+02   0.000e+00   9.182e-03   2.177e-02       50
    1400    5.846927e+02   0.000e+00   6.744e-03   1.618e-02       50
    1410    5.846911e+02   0.000e+00   5.034e-03   3.516e-02       50
    1420    5.846910e+02   0.000e+00   4.837e-03   5.282e-03       50
    1430    5.846899e+02   0.000e+00   6.676e-03   5.790e-02       50
    1440    5.846864e+02   0.000e+00   1.319e-02   7.573e-02       50
    1450    5.846813e+02   0.000e+00   3.919e-03   2.151e-02       50
    1460    5.846813e+02   0.000e+00   3.974e-03   7.389e-03       50
    1470    5.846810e+02   0.000e+00   4.760e-03   1.637e-02       50
    1480    5.846796e+02   0.000e+00   4.265e-03   1.250e-01       50
    1490    5.846792e+02   0.000e+00   3.987e-03   2.453e-02       50
    1500    5.846785e+02   0.000e+00   9.040e-04   8.266e-03       50
    1510    5.846785e+02   0.000e+00   8.329e-04   6.298e-03       50
    1520    5.846785e+02   0.000e+00   7.900e-04   3.005e-03       50
    1530    5.846785e+02   0.000e+00   7.276e-04   2.607e-02       50
    1540    5.846784e+02   0.000e+00   2.687e-03   1.186e-02       50
    1550    5.846739e+02   0.000e+00   6.996e-03   4.420e-02       50
    1560    5.846735e+02   0.000e+00   6.910e-03   2.004e-02       50
    1570    5.846718e+02   0.000e+00   3.598e-03   1.952e-02       50
    1580    5.846716e+02   0.000e+00   4.397e-03   1.747e-02       50
    1590    5.846707e+02   0.000e+00   4.051e-03   1.860e-01       50
    1600    5.846703e+02   0.000e+00   4.477e-03   1.201e-02       50
    1610    5.846695e+02   0.000e+00   2.637e-03   2.951e-02       50
    1620    5.846694e+02   0.000e+00   3.033e-03   9.927e-03       50
    1630    5.846693e+02   0.000e+00   3.942e-03   9.517e-03       50
    1640    5.846681e+02   0.000e+00   3.693e-03   3.927e-02       50
    1650    5.846680e+02   0.000e+00   4.023e-03   1.347e-02       50
    1660    5.846674e+02   0.000e+00   6.480e-04   6.618e-03       50
    1670    5.846674e+02   0.000e+00   5.869e-04   5.489e-03       50
    1680    5.846652e+02   0.000e+00   2.191e-04   1.151e-02       50
    1690    5.846652e+02   0.000e+00   1.946e-04   1.264e-02       50
    1700    5.846650e+02   0.000e+00   1.684e-04   2.388e-02       50
    1710    5.846650e+02   0.000e+00   1.740e-04   9.566e-03       50
    1720    5.846649e+02   0.000e+00   1.409e-04   1.022e-02       50
    1730    5.846648e+02   0.000e+00   3.611e-04   3.267e-02       50
    1740    5.846647e+02   0.000e+00   2.390e-04   3.349e-02       50
    1750    5.846646e+02   0.000e+00   1.512e-04   1.322e-02       50
    1760    5.846646e+02   0.000e+00   8.773e-05   2.260e-02       50
    1770    5.846645e+02   0.000e+00   3.479e-05   1.615e-02       50
    1780    5.846645e+02   0.000e+00   5.600e-05   1.466e-02       50
    1790    5.846644e+02   0.000e+00   7.149e-05   1.822e-02       50
    1800    5.846644e+02   0.000e+00   5.165e-05   1.260e-02       50
    1810    5.846644e+02   0.000e+00   1.144e-04   1.422e-02       50
    1820    5.846644e+02   0.000e+00   7.386e-05   1.272e-02       50
    1830    5.846644e+02   0.000e+00   5.517e-05   1.510e-02       50
    1840    5.846643e+02   0.000e+00   5.905e-05   9.546e-03       50
    1850    5.846643e+02   0.000e+00   7.930e-05   7.670e-03       50
    1860    5.846643e+02   0.000e+00   3.505e-05   1.028e-02       50
    1870    5.846643e+02   0.000e+00   6.365e-05   1.353e-02       50
    1880    5.846643e+02   0.000e+00   2.588e-05   6.450e-03       50
    1890    5.846643e+02   0.000e+00   3.026e-05   5.021e-03       50
    1900    5.846643e+02   0.000e+00   1.840e-05   5.229e-03       50
    1910    5.846643e+02   0.000e+00   9.758e-06   5.311e-03       50
    1920    5.846643e+02   0.000e+00   7.184e-06   1.194e-02       50
    1930    5.846643e+02   0.000e+00   4.469e-05   9.418e-03       50
    1940    5.846643e+02   0.000e+00   1.649e-05   5.077e-03       50
    1950    5.846643e+02   0.000e+00   1.052e-05   7.318e-03       50
    1960    5.846643e+02   0.000e+00   1.239e-05   5.891e-03       50
    1970    5.846643e+02   0.000e+00   5.734e-06   9.010e-03       50
    1980    5.846642e+02   0.000e+00   1.995e-05   5.933e-03       50
    1990    5.846642e+02   0.000e+00   1.770e-05   5.363e-03       50
    2000    5.846642e+02   0.000e+00   1.309e-05   4.210e-03       50
    2010    5.846642e+02   0.000e+00   7.320e-06   3.859e-03       50
    2020    5.846642e+02   0.000e+00   5.881e-06   5.754e-03       50
    2022    5.846642e+02   0.000e+00   4.701e-06   1.283e-02       50

EXIT: Locally optimal solution found.

Final Statistics
----------------
Final objective value               =   5.84664234755247e+02
Final feasibility error (abs / rel) =   0.00e+00 / 0.00e+00
Final optimality error  (abs / rel) =   4.70e-06 / 8.27e-07
# of iterations                     =       2022 
# of CG iterations                  =     100638 
# of function evaluations           =       2023
# of gradient evaluations           =       2023
Total program time (secs)           =    9235.89160 ( 10008.988 CPU time)
Time spent in evaluations (secs)    =     184.18579

===============================================================================

