Iter=   1000 alpha=     0.00140585 beta=              1 lowLevelErr=        11.0968 relDifference=        1747.91 relDifferenceCellwise=       0.213368 elapsedTime=        12.6278 energy=        95672.7
Iter=   2000 alpha=    0.000835925 beta=              1 lowLevelErr=        2.40954 relDifference=        761.678 relDifferenceCellwise=      0.0929783 elapsedTime=        25.1547 energy=        93103.4
Iter=   3000 alpha=    0.000616736 beta=              1 lowLevelErr=       0.899035 relDifference=        353.274 relDifferenceCellwise=      0.0431242 elapsedTime=        38.0749 energy=        13438.7
Iter=   4000 alpha=    0.000497044 beta=              1 lowLevelErr=        1.28887 relDifference=        762.696 relDifferenceCellwise=      0.0931025 elapsedTime=         51.642 energy=        83256.3
Iter=   5000 alpha=    0.000420448 beta=              1 lowLevelErr=       0.469982 relDifference=        314.852 relDifferenceCellwise=      0.0384341 elapsedTime=        65.8154 energy=        10761.1
Iter=   6000 alpha=    0.000366713 beta=              1 lowLevelErr=      0.0962772 relDifference=        39.3248 relDifferenceCellwise=     0.00480039 elapsedTime=        78.9451 energy=        5078.84
Iter=   7000 alpha=    0.000326675 beta=              1 lowLevelErr=      0.0714664 relDifference=        21.1512 relDifferenceCellwise=     0.00258193 elapsedTime=        92.1632 energy=         5027.2
Iter=   8000 alpha=    0.000295544 beta=              1 lowLevelErr=      0.0586011 relDifference=        11.7984 relDifferenceCellwise=     0.00144023 elapsedTime=        106.917 energy=        5001.07
Iter=   9000 alpha=    0.000270557 beta=              1 lowLevelErr=      0.0466291 relDifference=        10.5175 relDifferenceCellwise=     0.00128387 elapsedTime=         120.06 energy=        4940.52
Iter=  10000 alpha=        0.00025 beta=              1 lowLevelErr=      0.0364126 relDifference=        10.7197 relDifferenceCellwise=     0.00130855 elapsedTime=        132.422 energy=        4855.73
Iter=  11000 alpha=    0.000232753 beta=              1 lowLevelErr=      0.0281792 relDifference=        9.03389 relDifferenceCellwise=     0.00110277 elapsedTime=        143.585 energy=        4798.62
Iter=  12000 alpha=    0.000218049 beta=              1 lowLevelErr=      0.0220916 relDifference=        8.52624 relDifferenceCellwise=      0.0010408 elapsedTime=        156.604 energy=        4763.13
Iter=  13000 alpha=    0.000205344 beta=              1 lowLevelErr=      0.0174139 relDifference=        7.97235 relDifferenceCellwise=    0.000973187 elapsedTime=        166.926 energy=        4736.14
Iter=  14000 alpha=    0.000194242 beta=              1 lowLevelErr=      0.0137129 relDifference=        7.12012 relDifferenceCellwise=    0.000869155 elapsedTime=        179.843 energy=        4716.57
Iter=  15000 alpha=    0.000184447 beta=              1 lowLevelErr=       0.010763 relDifference=        6.65222 relDifferenceCellwise=    0.000812039 elapsedTime=        191.539 energy=        4702.44
Iter=  16000 alpha=    0.000175732 beta=              1 lowLevelErr=     0.00840673 relDifference=         5.8214 relDifferenceCellwise=     0.00071062 elapsedTime=        202.776 energy=        4691.89
Iter=  17000 alpha=     0.00016792 beta=              1 lowLevelErr=     0.00654254 relDifference=         5.1091 relDifferenceCellwise=    0.000623669 elapsedTime=        214.075 energy=         4684.6
Iter=  18000 alpha=    0.000160874 beta=              1 lowLevelErr=     0.00507293 relDifference=        4.51205 relDifferenceCellwise=    0.000550788 elapsedTime=        230.238 energy=        4679.55
Iter=  19000 alpha=    0.000154481 beta=              1 lowLevelErr=     0.00391847 relDifference=        4.12649 relDifferenceCellwise=    0.000503722 elapsedTime=        244.707 energy=        4675.79
Iter=  20000 alpha=    0.000148651 beta=              1 lowLevelErr=      0.0030273 relDifference=        3.93776 relDifferenceCellwise=    0.000480683 elapsedTime=        258.737 energy=        4672.73
Iter=  21000 alpha=     0.00014331 beta=              1 lowLevelErr=     0.00233513 relDifference=        3.87913 relDifferenceCellwise=    0.000473526 elapsedTime=        271.347 energy=        4670.18
Iter=  22000 alpha=    0.000138396 beta=              1 lowLevelErr=     0.00180532 relDifference=         3.7098 relDifferenceCellwise=    0.000452857 elapsedTime=        285.036 energy=        4667.94
Iter=  23000 alpha=    0.000133858 beta=              1 lowLevelErr=     0.00139355 relDifference=        3.55304 relDifferenceCellwise=    0.000433721 elapsedTime=        299.377 energy=        4666.05
Iter=  24000 alpha=    0.000129653 beta=              1 lowLevelErr=     0.00107888 relDifference=        3.33796 relDifferenceCellwise=    0.000407466 elapsedTime=         314.45 energy=        4664.36
Iter=  25000 alpha=    0.000125743 beta=              1 lowLevelErr=    0.000841264 relDifference=        3.18633 relDifferenceCellwise=    0.000388956 elapsedTime=        327.535 energy=        4662.94
Iter=  26000 alpha=    0.000122098 beta=              1 lowLevelErr=    0.000658854 relDifference=        3.15894 relDifferenceCellwise=    0.000385613 elapsedTime=        341.209 energy=        4661.68
Iter=  27000 alpha=    0.000118691 beta=              1 lowLevelErr=    0.000518359 relDifference=        2.98576 relDifferenceCellwise=    0.000364473 elapsedTime=        354.638 energy=        4660.56
Iter=  28000 alpha=    0.000115497 beta=              1 lowLevelErr=    0.000411168 relDifference=        2.98805 relDifferenceCellwise=    0.000364752 elapsedTime=        369.072 energy=        4659.51
Iter=  29000 alpha=    0.000112497 beta=              1 lowLevelErr=    0.000337582 relDifference=         2.8145 relDifferenceCellwise=    0.000343567 elapsedTime=        382.714 energy=        4658.56
Iter=  30000 alpha=    0.000109673 beta=              1 lowLevelErr=     0.00028629 relDifference=        2.82333 relDifferenceCellwise=    0.000344644 elapsedTime=         397.11 energy=        4657.68
Iter=  31000 alpha=    0.000107009 beta=              1 lowLevelErr=    0.000253928 relDifference=        2.78624 relDifferenceCellwise=    0.000340117 elapsedTime=        410.283 energy=        4656.81
Iter=  32000 alpha=    0.000104491 beta=              1 lowLevelErr=     0.00023019 relDifference=        2.77276 relDifferenceCellwise=    0.000338471 elapsedTime=         423.73 energy=        4655.98
Iter=  33000 alpha=    0.000102107 beta=              1 lowLevelErr=    0.000205362 relDifference=        2.86286 relDifferenceCellwise=     0.00034947 elapsedTime=         437.31 energy=        4655.17
Iter=  34000 alpha=     9.9846e-05 beta=              1 lowLevelErr=    0.000189248 relDifference=        2.88493 relDifferenceCellwise=    0.000352164 elapsedTime=        451.433 energy=        4654.32
Iter=  35000 alpha=    9.76987e-05 beta=              1 lowLevelErr=    0.000168635 relDifference=        2.86578 relDifferenceCellwise=    0.000349827 elapsedTime=        465.722 energy=        4653.51
Iter=  36000 alpha=    9.56562e-05 beta=              1 lowLevelErr=    0.000149022 relDifference=        2.95706 relDifferenceCellwise=     0.00036097 elapsedTime=        478.839 energy=        4652.69
Iter=  37000 alpha=    9.37106e-05 beta=              1 lowLevelErr=    0.000130059 relDifference=        2.92804 relDifferenceCellwise=    0.000357427 elapsedTime=        491.919 energy=         4651.9
Iter=  38000 alpha=    9.18549e-05 beta=              1 lowLevelErr=    0.000117658 relDifference=        2.92907 relDifferenceCellwise=    0.000357553 elapsedTime=        504.958 energy=        4651.09
Iter=  39000 alpha=    9.00827e-05 beta=              1 lowLevelErr=    0.000118881 relDifference=        2.86915 relDifferenceCellwise=    0.000350238 elapsedTime=        518.197 energy=        4650.31
Iter=  40000 alpha=    8.83883e-05 beta=              1 lowLevelErr=    0.000117587 relDifference=         2.9362 relDifferenceCellwise=    0.000358423 elapsedTime=          532.4 energy=        4649.56
Iter=  41000 alpha=    8.67665e-05 beta=              1 lowLevelErr=    0.000110268 relDifference=        2.98334 relDifferenceCellwise=    0.000364178 elapsedTime=        545.535 energy=        4648.79
Iter=  42000 alpha=    8.52124e-05 beta=              1 lowLevelErr=    0.000100993 relDifference=        2.89893 relDifferenceCellwise=    0.000353874 elapsedTime=        558.973 energy=        4648.06
Iter=  43000 alpha=    8.37218e-05 beta=              1 lowLevelErr=    9.06051e-05 relDifference=        2.87575 relDifferenceCellwise=    0.000351044 elapsedTime=          573.8 energy=        4647.35
Iter=  44000 alpha=    8.22907e-05 beta=              1 lowLevelErr=    8.51472e-05 relDifference=         2.9102 relDifferenceCellwise=    0.000355249 elapsedTime=        587.625 energy=        4646.65
Iter=  45000 alpha=    8.09153e-05 beta=              1 lowLevelErr=    8.50046e-05 relDifference=        2.97616 relDifferenceCellwise=    0.000363301 elapsedTime=        600.686 energy=        4645.94
Iter=  46000 alpha=    7.95924e-05 beta=              1 lowLevelErr=    8.60534e-05 relDifference=        3.02827 relDifferenceCellwise=    0.000369662 elapsedTime=        614.234 energy=        4645.23
Iter=  47000 alpha=    7.83189e-05 beta=              1 lowLevelErr=    9.09524e-05 relDifference=        2.96836 relDifferenceCellwise=    0.000362349 elapsedTime=        627.261 energy=        4644.52
Iter=  48000 alpha=     7.7092e-05 beta=              1 lowLevelErr=    8.81365e-05 relDifference=         2.9341 relDifferenceCellwise=    0.000358167 elapsedTime=        640.406 energy=        4643.83
Iter=  49000 alpha=    7.59089e-05 beta=              1 lowLevelErr=    8.44525e-05 relDifference=        2.93854 relDifferenceCellwise=    0.000358708 elapsedTime=        654.508 energy=        4643.17
Iter=  50000 alpha=    7.47674e-05 beta=              1 lowLevelErr=    7.72931e-05 relDifference=        2.91307 relDifferenceCellwise=    0.000355599 elapsedTime=        669.295 energy=        4642.54
